[gd_scene load_steps=7 format=2]

[ext_resource path="res://entities/exit/exit_light_texture_3.png" type="Texture" id=1]
[ext_resource path="res://entities/exit/Exit.gd" type="Script" id=2]
[ext_resource path="res://art/lights/square.png" type="Texture" id=3]
[ext_resource path="res://ui/icons/plain-arrow.png" type="Texture" id=4]
[ext_resource path="res://materials/unshaded_material.tres" type="Material" id=5]

[sub_resource type="RectangleShape2D" id=1]
extents = Vector2( 320, 64 )

[node name="Exit" type="Area2D"]
collision_layer = 0
collision_mask = 9216
script = ExtResource( 2 )

[node name="Trigger" type="CollisionShape2D" parent="."]
z_index = -1
z_as_relative = false
shape = SubResource( 1 )

[node name="Light" type="Light2D" parent="."]
position = Vector2( 0, -128 )
scale = Vector2( 0.763034, 0.763034 )
texture = ExtResource( 1 )
texture_scale = 1.25
color = Color( 0.176471, 0.215686, 0.329412, 1 )
energy = 2.0
shadow_enabled = true
shadow_color = Color( 0.152941, 0.145098, 0.145098, 0 )
shadow_gradient_length = 1.0
shadow_filter = 3
shadow_filter_smooth = 3.3
__meta__ = {
"_edit_lock_": true
}

[node name="LightMask" type="Light2D" parent="."]
position = Vector2( 0, -160 )
scale = Vector2( 2.5, 0.763034 )
texture = ExtResource( 3 )
color = Color( 0, 0, 0, 1 )
energy = 16.0
mode = 3
range_item_cull_mask = -2147483632

[node name="ExitPosition" type="Position2D" parent="."]
position = Vector2( 0, -160 )
scale = Vector2( 1.66667, 0.763034 )

[node name="Icon" type="Sprite" parent="ExitPosition"]
modulate = Color( 1, 1, 1, 0.498039 )
light_mask = 0
material = ExtResource( 5 )
rotation = -3.14159
scale = Vector2( 0.183128, 0.4 )
z_index = 50
z_as_relative = false
texture = ExtResource( 4 )
[connection signal="body_entered" from="." to="." method="_on_body_entered"]
