[gd_scene load_steps=5 format=2]

[ext_resource path="res://entities/abilities/ShadowGrenade.tscn" type="PackedScene" id=1]
[ext_resource path="res://entities/items/base/Artifact.tscn" type="PackedScene" id=2]
[ext_resource path="res://entities/items/sprites/skull-ring.png" type="Texture" id=3]
[ext_resource path="res://entities/items/artifacts/sprites/abilities/smoke-bomb.png" type="Texture" id=4]

[node name="ArtifactShadowGrenade" instance=ExtResource( 2 )]
item_name = "Shadow Grenade"
cost = 30.0
ability_scene = ExtResource( 1 )
ability_icon = ExtResource( 4 )
distraction_radius = 5.0

[node name="Sprite" parent="." index="2"]
self_modulate = Color( 0.662745, 0.282353, 0.00392157, 1 )
texture = ExtResource( 3 )

[editable path="Interactable"]
