[gd_scene load_steps=4 format=2]

[ext_resource path="res://ui/widgets/SacrificeProgress.gd" type="Script" id=1]

[sub_resource type="StyleBoxFlat" id=1]
bg_color = Color( 0.203922, 0.411765, 0.65098, 1 )
border_color = Color( 0.135, 0.324, 0.54, 1 )
corner_radius_top_left = 5
corner_radius_top_right = 5
corner_radius_bottom_right = 5
corner_radius_bottom_left = 5
expand_margin_right = 1.0

[sub_resource type="StyleBoxFlat" id=2]
bg_color = Color( 0.31, 0.31, 0.31, 1 )
corner_radius_top_left = 5
corner_radius_top_right = 5
corner_radius_bottom_right = 5
corner_radius_bottom_left = 5
corner_detail = 5

[node name="SacrificeProgress" type="Control"]
script = ExtResource( 1 )
__meta__ = {
"_edit_use_anchors_": false
}

[node name="ProgressBar" type="ProgressBar" parent="."]
anchor_left = 0.5
anchor_top = 0.5
anchor_right = 0.5
anchor_bottom = 0.5
margin_left = -75.0
margin_top = -12.5
margin_right = 75.0
margin_bottom = 12.5
rect_pivot_offset = Vector2( 75, 12 )
custom_styles/fg = SubResource( 1 )
custom_styles/bg = SubResource( 2 )
max_value = 1.0
percent_visible = false
__meta__ = {
"_edit_use_anchors_": false
}

[node name="Tween" type="Tween" parent="."]
