[gd_resource type="DynamicFont" load_steps=2 format=2]

[ext_resource path="res://ui/fonts/Lato-Regular.ttf" type="DynamicFontData" id=1]

[resource]
size = 22
outline_size = 1
outline_color = Color( 0.0627451, 0.0627451, 0.0627451, 1 )
use_filter = true
font_data = ExtResource( 1 )
