[gd_scene load_steps=6 format=2]

[ext_resource path="res://components/detection/VisionCone.gd" type="Script" id=1]
[ext_resource path="res://helper/ConeShape2D.gd" type="Script" id=2]
[ext_resource path="res://materials/white_collision_material.tres" type="Material" id=3]

[sub_resource type="ConvexPolygonShape2D" id=1]
resource_local_to_scene = true
points = PoolVector2Array( 0, 0, 443.405, -256, 473.026, -195.934, 494.554, -132.515, 507.62, -66.8294, 512, 0, 507.62, 66.8294, 494.554, 132.515, 473.026, 195.934, 443.405, 256, 0, 0 )
script = ExtResource( 2 )
radius = 512.0
angle = 60.0
base_height = 0.0

[sub_resource type="GDScript" id=2]
script/source = "tool
extends Node2D
# Draws the vision cone


static func make_circle_polygon(r: float, point_count: int = 45) -> PoolVector2Array:
	var points = PoolVector2Array()
	points.resize(point_count)
	for i in point_count:
		points[i] = polar2cartesian(r, float(i) / point_count * TAU)
	return points


func _enter_tree() -> void:
	add_to_group(Group.DEBUG)
	_on_debug_changed(Debug.Type.NONE)
	var parent = get_parent()
	if not parent.is_connected(\"cone_shape_changed\", self, \"_on_state_changed\"):
		parent.connect(\"cone_shape_changed\", self, \"_on_state_changed\")
	

func _draw() -> void:
	if visible:
		var collision_shape = get_parent().collision_shape
		if not collision_shape: 
			return
		draw_polygon(collision_shape.points, PoolColorArray([Color(1.0, 0, 0, 0.25)]))
		var near_circle = make_circle_polygon(get_parent().near_radius * Config.tile_size)
		var near_polygon = Geometry.intersect_polygons_2d(collision_shape.points, near_circle).pop_front()
		if near_polygon:
			draw_polygon(near_polygon, PoolColorArray([Color.whitesmoke.linear_interpolate(Color.transparent, 0.7)]))


func _on_state_changed() -> void:
	update()


func _on_debug_changed(value: int) -> void:
	visible = value & Debug.Type.NORMAL
	update()
"

[node name="VisionCone" type="Area2D"]
light_mask = 0
collision_layer = 32768
collision_mask = 1024
script = ExtResource( 1 )

[node name="CollisionShape2D" type="CollisionShape2D" parent="."]
visible = false
modulate = Color( 1, 0.498039, 0, 1 )
material = ExtResource( 3 )
shape = SubResource( 1 )

[node name="Debug" type="Node2D" parent="."]
script = SubResource( 2 )
