[gd_scene load_steps=5 format=2]

[ext_resource path="res://entities/player/Player.tscn" type="PackedScene" id=1]
[ext_resource path="res://levels/tilemap/TilemapRuins.tscn" type="PackedScene" id=2]
[ext_resource path="res://levels/Level.gd" type="Script" id=3]
[ext_resource path="res://ui/HUD.tscn" type="PackedScene" id=4]

[node name="Node2D" type="Node2D"]
script = ExtResource( 3 )
HUDScene = ExtResource( 4 )

[node name="TileMapRuins" parent="." instance=ExtResource( 2 )]
position = Vector2( 0, -1 )
tile_data = PoolIntArray( -1048568, -1073741818, 0, -1048567, -1073741818, 0, -1048566, -1073741818, 0, -1048565, -1073741818, 0, -1048564, -1073741818, 0, -1048563, -1073741818, 0, -1048562, -1073741818, 0, -1048561, -1073741818, 0, -1048560, -1073741818, 0, -1048559, -1073741818, 0, -1048558, -1073741818, 0, -1048557, -1073741818, 0, -1048556, -1073741818, 0, -1048555, -1073741818, 0, -1048554, -1073741818, 0, -1048553, -1073741818, 0, -1048552, -1073741818, 0, -1048551, -1073741818, 0, -1048550, -1073741818, 0, -1048549, -1073741818, 0, -1048548, -1073741818, 0, -1048547, -1073741818, 0, -1048546, -1073741818, 0, -1048545, -1073741818, 0, -1048544, -1073741818, 0, -1048543, -1073741818, 0, -1048542, -1073741818, 0, -1048541, -1073741818, 0, -1048540, -1073741818, 0, -1048539, -1073741818, 0, -1048538, -1073741818, 0, -1048537, -1073741818, 0, -1048536, -1073741818, 0, -1048535, -1073741818, 0, -983032, -1073741818, 0, -983031, -1073741821, 0, -983030, -1073741821, 0, -983029, -1073741821, 0, -983028, -1073741821, 0, -983027, -1073741821, 0, -983026, -1073741821, 0, -983025, -1073741821, 0, -983024, -1073741818, 0, -983023, -1073741822, 0, -983022, -1073741822, 0, -983021, -1073741822, 0, -983020, -1073741822, 0, -983019, -1073741822, 0, -983018, -1073741822, 0, -983017, -1073741822, 0, -983016, -1073741822, 0, -983015, -1073741818, 0, -983014, -1073741821, 0, -983013, -1073741821, 0, -983012, -1073741821, 0, -983011, -1073741821, 0, -983010, -1073741821, 0, -983009, -1073741821, 0, -983008, -1073741821, 0, -983007, -1073741821, 0, -983006, -1073741821, 0, -983005, -1073741821, 0, -983004, -1073741821, 0, -983003, -1073741821, 0, -983002, -1073741821, 0, -983001, -1073741821, 0, -983000, -1073741821, 0, -982999, -1073741818, 0, -917496, -1073741818, 0, -917495, -1073741821, 0, -917494, -1073741821, 0, -917493, -1073741821, 0, -917492, -1073741821, 0, -917491, -1073741821, 0, -917490, -1073741821, 0, -917489, -1073741821, 0, -917488, -1073741818, 0, -917487, -1073741822, 0, -917486, -1073741822, 0, -917485, -1073741822, 0, -917484, -1073741822, 0, -917483, -1073741822, 0, -917482, -1073741822, 0, -917481, -1073741822, 0, -917480, -1073741822, 0, -917479, -1073741818, 0, -917478, -1073741821, 0, -917477, -1073741821, 0, -917476, -1073741821, 0, -917475, -1073741821, 0, -917474, -1073741821, 0, -917473, -1073741821, 0, -917472, -1073741821, 0, -917471, -1073741818, 0, -917470, -1073741821, 0, -917469, -1073741821, 0, -917468, -1073741821, 0, -917467, -1073741821, 0, -917466, -1073741821, 0, -917465, -1073741821, 0, -917464, -1073741821, 0, -917463, -1073741818, 0, -851960, -1073741818, 0, -851959, -1073741821, 0, -851958, -1073741821, 0, -851957, -1073741821, 0, -851956, -1073741821, 0, -851955, -1073741821, 0, -851954, -1073741821, 0, -851953, -1073741821, 0, -851952, -1073741818, 0, -851951, -1073741822, 0, -851950, -1073741822, 0, -851949, -1073741822, 0, -851948, -1073741822, 0, -851947, -1073741822, 0, -851946, -1073741822, 0, -851945, -1073741822, 0, -851944, -1073741822, 0, -851943, -1073741822, 0, -851942, -1073741821, 0, -851941, -1073741821, 0, -851940, -1073741821, 0, -851939, -1073741821, 0, -851938, -1073741821, 0, -851937, -1073741821, 0, -851936, -1073741821, 0, -851935, -1073741818, 0, -851934, -1073741821, 0, -851933, -1073741818, 0, -851932, -1073741818, 0, -851931, -1073741818, 0, -851930, -1073741818, 0, -851929, -1073741818, 0, -851928, -1073741821, 0, -851927, -1073741818, 0, -786424, -1073741818, 0, -786423, -1073741818, 0, -786422, -1073741818, 0, -786421, -1073741818, 0, -786420, -1073741818, 0, -786419, -1073741818, 0, -786418, -1073741821, 0, -786417, -1073741821, 0, -786416, -1073741818, 0, -786415, -1073741822, 0, -786414, -1073741822, 0, -786413, -1073741822, 0, -786412, -1073741822, 0, -786411, -1073741822, 0, -786410, -1073741822, 0, -786409, -1073741822, 0, -786408, -1073741822, 0, -786407, -1073741822, 0, -786406, -1073741818, 0, -786405, -1073741818, 0, -786404, -1073741818, 0, -786403, -1073741818, 0, -786402, -1073741818, 0, -786401, -1073741818, 0, -786400, -1073741818, 0, -786399, -1073741818, 0, -786398, -1073741821, 0, -786397, -1073741818, 0, -786393, -1073741818, 0, -786392, -1073741821, 0, -786391, -1073741818, 0, -720888, -1073741818, 0, -720887, -1073741822, 0, -720886, -1073741822, 0, -720885, -1073741822, 0, -720884, -1073741822, 0, -720883, -1073741822, 0, -720882, -1073741822, 0, -720881, -1073741822, 0, -720880, -1073741822, 0, -720879, -1073741822, 0, -720878, -1073741822, 0, -720877, -1073741822, 0, -720876, -1073741822, 0, -720875, -1073741822, 0, -720874, -1073741822, 0, -720873, -1073741822, 0, -720872, -1073741822, 0, -720871, -1073741822, 0, -720870, -1073741822, 0, -720869, -1073741822, 0, -720868, -1073741822, 0, -720867, -1073741822, 0, -720866, -1073741822, 0, -720865, -1073741822, 0, -720864, -1073741822, 0, -720863, -1073741818, 0, -720862, -1073741821, 0, -720861, -1073741818, 0, -720860, -1073741818, 0, -720859, -1073741818, 0, -720858, -1073741818, 0, -720857, -1073741818, 0, -720856, -1073741821, 0, -720855, -1073741818, 0, -655352, -1073741818, 0, -655351, -1073741822, 0, -655350, -1073741822, 0, -655349, -1073741822, 0, -655348, -1073741822, 0, -655347, -1073741822, 0, -655346, -1073741822, 0, -655345, -1073741822, 0, -655344, -1073741822, 0, -655343, -1073741822, 0, -655342, -1073741822, 0, -655341, -1073741822, 0, -655340, -1073741822, 0, -655339, -1073741822, 0, -655338, -1073741822, 0, -655337, -1073741822, 0, -655336, -1073741822, 0, -655335, -1073741822, 0, -655334, -1073741822, 0, -655333, -1073741822, 0, -655332, -1073741822, 0, -655331, -1073741822, 0, -655330, -1073741822, 0, -655329, -1073741822, 0, -655328, -1073741822, 0, -655327, -1073741818, 0, -655326, -1073741821, 0, -655325, -1073741821, 0, -655324, -1073741821, 0, -655323, -1073741821, 0, -655322, -1073741821, 0, -655321, -1073741821, 0, -655320, -1073741821, 0, -655319, -1073741818, 0, -589816, -1073741818, 0, -589815, -1073741822, 0, -589814, -1073741822, 0, -589813, -1073741822, 0, -589812, -1073741822, 0, -589811, -1073741822, 0, -589810, -1073741822, 0, -589809, -1073741822, 0, -589808, -1073741822, 0, -589807, -1073741822, 0, -589806, -1073741822, 0, -589805, -1073741822, 0, -589804, -1073741822, 0, -589803, -1073741822, 0, -589802, -1073741822, 0, -589801, -1073741822, 0, -589800, -1073741822, 0, -589799, -1073741822, 0, -589798, -1073741822, 0, -589797, -1073741822, 0, -589796, -1073741822, 0, -589795, -1073741822, 0, -589794, -1073741822, 0, -589793, -1073741822, 0, -589792, -1073741822, 0, -589791, -1073741821, 0, -589790, -1073741821, 0, -589789, -1073741821, 0, -589788, -1073741821, 0, -589787, -1073741821, 0, -589786, -1073741821, 0, -589785, -1073741821, 0, -589784, -1073741821, 0, -589783, -1073741818, 0, -524280, -1073741818, 0, -524279, -1073741822, 0, -524278, -1073741822, 0, -524277, -1073741818, 0, -524276, -1073741818, 0, -524275, -1073741818, 0, -524274, -1073741818, 0, -524273, -1073741818, 0, -524272, -1073741818, 0, -524271, -1073741818, 0, -524270, -1073741818, 0, -524269, -1073741818, 0, -524268, -1073741818, 0, -524267, -1073741818, 0, -524266, -1073741818, 0, -524265, -1073741818, 0, -524264, -1073741818, 0, -524263, -1073741818, 0, -524262, -1073741818, 0, -524261, -1073741818, 0, -524260, -1073741821, 0, -524259, -1073741821, 0, -524258, -1073741818, 0, -524257, -1073741818, 0, -524256, -1073741818, 0, -524255, -1073741818, 0, -524254, -1073741818, 0, -524253, -1073741818, 0, -524252, -1073741818, 0, -524251, -1073741818, 0, -524250, -1073741818, 0, -524249, -1073741818, 0, -524248, -1073741818, 0, -524247, -1073741818, 0, -458744, -1073741818, 0, -458743, -1073741822, 0, -458742, -1073741822, 0, -458741, -1073741818, 0, -458726, -1073741818, 0, -458725, -1073741821, 0, -458724, -1073741821, 0, -458723, -1073741821, 0, -458722, -1073741821, 0, -458721, -1073741818, 0, -393208, -1073741818, 0, -393207, -1073741822, 0, -393206, -1073741822, 0, -393205, -1073741818, 0, -393190, -1073741818, 0, -393189, -1073741821, 0, -393188, -1073741821, 0, -393187, -1073741821, 0, -393186, -1073741821, 0, -393185, -1073741818, 0, -327672, -1073741818, 0, -327671, -1073741821, 0, -327670, -1073741821, 0, -327669, -1073741818, 0, -327654, -1073741818, 0, -327653, -1073741821, 0, -327652, -1073741821, 0, -327651, -1073741821, 0, -327650, -1073741821, 0, -327649, -1073741818, 0, -262136, -1073741818, 0, -262135, -1073741821, 0, -262134, -1073741821, 0, -262133, -1073741818, 0, -262124, -1073741818, 0, -262123, -1073741818, 0, -262122, -1073741818, 0, -262121, -1073741818, 0, -262120, -1073741818, 0, -262119, -1073741818, 0, -262118, -1073741818, 0, -262117, -1073741818, 0, -262116, -1073741821, 0, -262115, -1073741821, 0, -262114, -1073741818, 0, -262113, -1073741818, 0, -262112, -1073741818, 0, -262111, -1073741818, 0, -262110, -1073741818, 0, -262109, -1073741818, 0, -262108, -1073741818, 0, -262107, -1073741818, 0, -196600, -1073741818, 0, -196599, -1073741821, 0, -196598, -1073741821, 0, -196597, -1073741818, 0, -196588, -1073741818, 0, -196587, -1073741823, 0, -196586, -1073741823, 0, -196585, -1073741823, 0, -196584, -1073741823, 0, -196583, -1073741823, 0, -196582, -1073741823, 0, -196581, -1073741823, 0, -196580, -1073741823, 0, -196579, -1073741823, 0, -196578, -1073741823, 0, -196577, -1073741823, 0, -196576, -1073741823, 0, -196575, -1073741823, 0, -196574, -1073741823, 0, -196573, -1073741823, 0, -196572, -1073741823, 0, -196571, -1073741818, 0, -131072, -1073741818, 0, -131071, -1073741818, 0, -131070, -1073741818, 0, -131069, -1073741818, 0, -131068, -1073741818, 0, -131067, -1073741818, 0, -131066, -1073741818, 0, -131065, -1073741818, 0, -131064, -1073741818, 0, -131063, -1073741821, 0, -131062, -1073741821, 0, -131061, -1073741818, 0, -131052, -1073741818, 0, -131051, -1073741823, 0, -131050, -1073741823, 0, -131049, -1073741823, 0, -131048, -1073741823, 0, -131047, -1073741823, 0, -131046, -1073741823, 0, -131045, -1073741823, 0, -131044, -1073741823, 0, -131043, -1073741823, 0, -131042, -1073741823, 0, -131041, -1073741823, 0, -131040, -1073741823, 0, -131039, -1073741823, 0, -131038, -1073741823, 0, -131037, -1073741823, 0, -131036, -1073741823, 0, -131035, -1073741818, 0, -65536, -1073741821, 0, -65535, -1073741821, 0, -65534, -1073741821, 0, -65533, -1073741821, 0, -65532, -1073741821, 0, -65531, -1073741821, 0, -65530, -1073741821, 0, -65529, -1073741821, 0, -65528, -1073741821, 0, -65527, -1073741821, 0, -65526, -1073741821, 0, -65525, -1073741818, 0, -65516, -1073741818, 0, -65515, -1073741823, 0, -65514, -1073741823, 0, -65513, -1073741823, 0, -65512, -1073741823, 0, -65511, -1073741823, 0, -65510, -1073741823, 0, -65509, -1073741823, 0, -65508, -1073741823, 0, -65507, -1073741823, 0, -65506, -1073741823, 0, -65505, -1073741823, 0, -65504, -1073741823, 0, -65503, -1073741823, 0, -65502, -1073741823, 0, -65501, -1073741823, 0, -65500, -1073741823, 0, -65499, -1073741818, 0, 0, -1073741821, 0, 1, -1073741821, 0, 2, -1073741821, 0, 3, -1073741821, 0, 4, -1073741821, 0, 5, -1073741821, 0, 6, -1073741821, 0, 7, -1073741821, 0, 8, -1073741821, 0, 9, -1073741821, 0, 10, -1073741821, 0, 11, -1073741818, 0, 20, -1073741818, 0, 21, -1073741823, 0, 22, -1073741823, 0, 23, -1073741823, 0, 24, -1073741823, 0, 25, -1073741823, 0, 26, -1073741823, 0, 27, -1073741823, 0, 28, -1073741823, 0, 29, -1073741823, 0, 30, -1073741823, 0, 31, -1073741823, 0, 32, -1073741823, 0, 33, -1073741823, 0, 34, -1073741823, 0, 35, -1073741823, 0, 36, -1073741823, 0, 37, -1073741818, 0, 39, -1073741818, 0, 40, -1073741818, 0, 41, -1073741818, 0, 42, -1073741818, 0, 43, -1073741818, 0, 44, -1073741818, 0, 45, -1073741818, 0, 46, -1073741818, 0, 47, -1073741818, 0, 48, -1073741818, 0, 49, -1073741818, 0, 65536, -1073741818, 0, 65537, -1073741818, 0, 65538, -1073741818, 0, 65539, -1073741818, 0, 65540, -1073741818, 0, 65541, -1073741818, 0, 65542, -1073741818, 0, 65543, -1073741818, 0, 65544, -1073741818, 0, 65545, -1073741821, 0, 65546, -1073741821, 0, 65547, -1073741818, 0, 65556, -1073741818, 0, 65557, -1073741823, 0, 65558, -1073741823, 0, 65559, -1073741823, 0, 65560, -1073741823, 0, 65561, -1073741823, 0, 65562, -1073741823, 0, 65563, -1073741823, 0, 65564, -1073741823, 0, 65565, -1073741823, 0, 65566, -1073741823, 0, 65567, -1073741823, 0, 65568, -1073741823, 0, 65569, -1073741823, 0, 65570, -1073741823, 0, 65571, -1073741823, 0, 65572, -1073741823, 0, 65573, -1073741818, 0, 65575, -1073741818, 0, 65576, -1073741821, 0, 65577, -1073741821, 0, 65578, -1073741821, 0, 65579, -1073741821, 0, 65580, -1073741821, 0, 65581, -1073741821, 0, 65582, -1073741821, 0, 65583, -1073741821, 0, 65584, -1073741821, 0, 65585, -1073741818, 0, 131080, -1073741818, 0, 131081, -1073741821, 0, 131082, -1073741821, 0, 131083, -1073741818, 0, 131084, -1073741818, 0, 131085, -1073741818, 0, 131086, -1073741818, 0, 131087, -1073741818, 0, 131088, -1073741818, 0, 131089, -1073741818, 0, 131090, -1073741818, 0, 131091, -1073741818, 0, 131092, -1073741818, 0, 131093, -1073741823, 0, 131094, -1073741823, 0, 131095, -1073741823, 0, 131096, -1073741823, 0, 131097, -1073741823, 0, 131098, -1073741823, 0, 131099, -1073741823, 0, 131100, -1073741823, 0, 131101, -1073741823, 0, 131102, -1073741823, 0, 131103, -1073741823, 0, 131104, -1073741823, 0, 131105, -1073741823, 0, 131106, -1073741823, 0, 131107, -1073741823, 0, 131108, -1073741823, 0, 131109, -1073741818, 0, 131111, -1073741818, 0, 131112, -1073741821, 0, 131113, -1073741821, 0, 131114, -1073741821, 0, 131115, -1073741821, 0, 131116, -1073741821, 0, 131117, -1073741821, 0, 131118, -1073741821, 0, 131119, -1073741821, 0, 131120, -1073741821, 0, 131121, -1073741818, 0, 196616, -1073741818, 0, 196617, -1073741821, 0, 196618, -1073741821, 0, 196619, -1073741821, 0, 196620, -1073741821, 0, 196621, -1073741821, 0, 196622, -1073741821, 0, 196623, -1073741821, 0, 196624, -1073741821, 0, 196625, -1073741821, 0, 196626, -1073741821, 0, 196627, -1073741821, 0, 196628, -1073741821, 0, 196629, -1073741823, 0, 196630, -1073741823, 0, 196631, -1073741823, 0, 196632, -1073741823, 0, 196633, -1073741823, 0, 196634, -1073741823, 0, 196635, -1073741823, 0, 196636, -1073741823, 0, 196637, -1073741823, 0, 196638, -1073741823, 0, 196639, -1073741823, 0, 196640, -1073741823, 0, 196641, -1073741823, 0, 196642, -1073741823, 0, 196643, -1073741823, 0, 196644, -1073741823, 0, 196645, -1073741818, 0, 196647, -1073741818, 0, 196648, -1073741821, 0, 196649, -1073741821, 0, 196650, -1073741821, 0, 196651, -1073741821, 0, 196652, -1073741821, 0, 196653, -1073741821, 0, 196654, -1073741821, 0, 196655, -1073741821, 0, 196656, -1073741821, 0, 196657, -1073741818, 0, 262152, -1073741818, 0, 262153, -1073741821, 0, 262154, -1073741821, 0, 262155, -1073741821, 0, 262156, -1073741821, 0, 262157, -1073741821, 0, 262158, -1073741821, 0, 262159, -1073741821, 0, 262160, -1073741821, 0, 262161, -1073741821, 0, 262162, -1073741821, 0, 262163, -1073741821, 0, 262164, -1073741821, 0, 262165, -1073741821, 0, 262166, -1073741818, 0, 262167, -1073741818, 0, 262168, -1073741818, 0, 262169, -1073741818, 0, 262170, -1073741818, 0, 262171, -1073741818, 0, 262172, -1073741818, 0, 262173, -1073741818, 0, 262174, -1073741818, 0, 262175, -1073741818, 0, 262176, -1073741818, 0, 262177, -1073741818, 0, 262178, -1073741818, 0, 262179, -1073741821, 0, 262180, -1073741821, 0, 262181, -1073741818, 0, 262183, -1073741818, 0, 262184, -1073741821, 0, 262185, -1073741821, 0, 262186, -1073741821, 0, 262187, -1073741821, 0, 262188, -1073741821, 0, 262189, -1073741821, 0, 262190, -1073741821, 0, 262191, -1073741821, 0, 262192, -1073741821, 0, 262193, -1073741818, 0, 327688, -1073741818, 0, 327689, -1073741821, 0, 327690, -1073741821, 0, 327691, -1073741818, 0, 327692, -1073741818, 0, 327693, -1073741818, 0, 327694, -1073741818, 0, 327695, -1073741818, 0, 327696, -1073741818, 0, 327697, -1073741818, 0, 327698, -1073741818, 0, 327699, -1073741818, 0, 327700, -1073741818, 0, 327701, -1073741818, 0, 327702, -1073741818, 0, 327714, -1073741818, 0, 327715, -1073741821, 0, 327716, -1073741821, 0, 327717, -1073741818, 0, 327719, -1073741818, 0, 327720, -1073741821, 0, 327721, -1073741821, 0, 327722, -1073741821, 0, 327723, -1073741821, 0, 327724, -1073741821, 0, 327725, -1073741821, 0, 327726, -1073741821, 0, 327727, -1073741821, 0, 327728, -1073741821, 0, 327729, -1073741818, 0, 393224, -1073741818, 0, 393225, -1073741821, 0, 393226, -1073741821, 0, 393227, -1073741818, 0, 393250, -1073741818, 0, 393251, -1073741821, 0, 393252, -1073741821, 0, 393253, -1073741818, 0, 393255, -1073741818, 0, 393256, -1073741818, 0, 393257, -1073741818, 0, 393258, -1073741821, 0, 393259, -1073741818, 0, 393260, -1073741818, 0, 393261, -1073741818, 0, 393262, -1073741818, 0, 393263, -1073741818, 0, 393264, -1073741821, 0, 393265, -1073741818, 0, 458760, -1073741818, 0, 458761, -1073741820, 0, 458762, -1073741820, 0, 458763, -1073741818, 0, 458776, -1073741818, 0, 458777, -1073741818, 0, 458778, -1073741818, 0, 458779, -1073741818, 0, 458780, -1073741818, 0, 458781, -1073741818, 0, 458786, -1073741818, 0, 458787, -1073741821, 0, 458788, -1073741821, 0, 458789, -1073741818, 0, 458793, -1073741818, 0, 458794, -1073741821, 0, 458795, -1073741818, 0, 458799, -1073741818, 0, 458800, -1073741821, 0, 458801, -1073741818, 0, 524296, -1073741818, 0, 524297, -1073741820, 0, 524298, -1073741820, 0, 524299, -1073741818, 0, 524312, -1073741818, 0, 524313, -1073741820, 0, 524314, -1073741820, 0, 524315, -1073741820, 0, 524316, -1073741820, 0, 524317, -1073741818, 0, 524322, -1073741818, 0, 524323, -1073741821, 0, 524324, -1073741821, 0, 524325, -1073741818, 0, 524327, -1073741818, 0, 524328, -1073741818, 0, 524329, -1073741818, 0, 524330, -1073741821, 0, 524331, -1073741818, 0, 524332, -1073741818, 0, 524333, -1073741818, 0, 524335, -1073741818, 0, 524336, -1073741821, 0, 524337, -1073741818, 0, 589832, -1073741818, 0, 589833, -1073741820, 0, 589834, -1073741820, 0, 589835, -1073741818, 0, 589848, -1073741818, 0, 589849, -1073741820, 0, 589850, -1073741820, 0, 589851, -1073741820, 0, 589852, -1073741820, 0, 589853, -1073741818, 0, 589858, -1073741818, 0, 589859, -1073741821, 0, 589860, -1073741821, 0, 589861, -1073741818, 0, 589863, -1073741818, 0, 589864, -1073741821, 0, 589865, -1073741821, 0, 589866, -1073741821, 0, 589867, -1073741821, 0, 589868, -1073741821, 0, 589869, -1073741818, 0, 589871, -1073741818, 0, 589872, -1073741821, 0, 589873, -1073741818, 0, 655368, -1073741818, 0, 655369, -1073741820, 0, 655370, -1073741820, 0, 655371, -1073741818, 0, 655384, -1073741818, 0, 655385, -1073741820, 0, 655386, -1073741820, 0, 655387, -1073741820, 0, 655388, -1073741820, 0, 655389, -1073741818, 0, 655394, -1073741818, 0, 655395, -1073741821, 0, 655396, -1073741821, 0, 655397, -1073741818, 0, 655399, -1073741818, 0, 655400, -1073741821, 0, 655401, -1073741821, 0, 655402, -1073741821, 0, 655403, -1073741821, 0, 655404, -1073741821, 0, 655405, -1073741818, 0, 655407, -1073741818, 0, 655408, -1073741821, 0, 655409, -1073741818, 0, 720904, -1073741818, 0, 720905, -1073741820, 0, 720906, -1073741820, 0, 720907, -1073741818, 0, 720909, -1073741818, 0, 720910, -1073741818, 0, 720911, -1073741818, 0, 720912, -1073741818, 0, 720913, -1073741818, 0, 720914, -1073741818, 0, 720915, -1073741818, 0, 720917, -1073741818, 0, 720918, -1073741818, 0, 720919, -1073741818, 0, 720920, -1073741818, 0, 720921, -1073741818, 0, 720922, -1073741820, 0, 720923, -1073741820, 0, 720924, -1073741818, 0, 720925, -1073741818, 0, 720926, -1073741818, 0, 720927, -1073741818, 0, 720928, -1073741818, 0, 720929, -1073741818, 0, 720930, -1073741818, 0, 720931, -1073741821, 0, 720932, -1073741821, 0, 720933, -1073741818, 0, 720934, -1073741818, 0, 720935, -1073741818, 0, 720936, -1073741821, 0, 720937, -1073741821, 0, 720938, -1073741821, 0, 720939, -1073741821, 0, 720940, -1073741821, 0, 720941, -1073741818, 0, 720942, -1073741818, 0, 720943, -1073741818, 0, 720944, -1073741821, 0, 720945, -1073741818, 0, 786440, -1073741818, 0, 786441, -1073741820, 0, 786442, -1073741820, 0, 786443, -1073741818, 0, 786445, -1073741818, 0, 786446, -1073741820, 0, 786447, -1073741820, 0, 786448, -1073741820, 0, 786449, -1073741820, 0, 786450, -1073741820, 0, 786451, -1073741818, 0, 786453, -1073741818, 0, 786454, -1073741820, 0, 786455, -1073741820, 0, 786456, -1073741820, 0, 786457, -1073741820, 0, 786458, -1073741820, 0, 786459, -1073741820, 0, 786460, -1073741820, 0, 786461, -1073741820, 0, 786462, -1073741820, 0, 786463, -1073741820, 0, 786464, -1073741820, 0, 786465, -1073741820, 0, 786466, -1073741821, 0, 786467, -1073741821, 0, 786468, -1073741821, 0, 786469, -1073741821, 0, 786470, -1073741821, 0, 786471, -1073741821, 0, 786472, -1073741821, 0, 786473, -1073741821, 0, 786474, -1073741821, 0, 786475, -1073741821, 0, 786476, -1073741821, 0, 786477, -1073741821, 0, 786478, -1073741821, 0, 786479, -1073741821, 0, 786480, -1073741821, 0, 786481, -1073741818, 0, 851976, -1073741818, 0, 851977, -1073741820, 0, 851978, -1073741820, 0, 851979, -1073741818, 0, 851981, -1073741818, 0, 851982, -1073741820, 0, 851983, -1073741820, 0, 851984, -1073741820, 0, 851985, -1073741820, 0, 851986, -1073741820, 0, 851987, -1073741818, 0, 851989, -1073741818, 0, 851990, -1073741820, 0, 851991, -1073741820, 0, 851992, -1073741820, 0, 851993, -1073741820, 0, 851994, -1073741820, 0, 851995, -1073741820, 0, 851996, -1073741820, 0, 851997, -1073741820, 0, 851998, -1073741820, 0, 851999, -1073741820, 0, 852000, -1073741820, 0, 852001, -1073741820, 0, 852002, -1073741821, 0, 852003, -1073741821, 0, 852004, -1073741821, 0, 852005, -1073741821, 0, 852006, -1073741821, 0, 852007, -1073741821, 0, 852008, -1073741821, 0, 852009, -1073741821, 0, 852010, -1073741821, 0, 852011, -1073741821, 0, 852012, -1073741821, 0, 852013, -1073741821, 0, 852014, -1073741821, 0, 852015, -1073741821, 0, 852016, -1073741821, 0, 852017, -1073741818, 0, 917512, -1073741818, 0, 917513, -1073741820, 0, 917514, -1073741820, 0, 917515, -1073741818, 0, 917517, -1073741818, 0, 917518, -1073741820, 0, 917519, -1073741820, 0, 917520, -1073741820, 0, 917521, -1073741820, 0, 917522, -1073741820, 0, 917523, -1073741818, 0, 917525, -1073741818, 0, 917526, -1073741820, 0, 917527, -1073741820, 0, 917528, -1073741820, 0, 917529, -1073741820, 0, 917530, -1073741820, 0, 917531, -1073741820, 0, 917532, -1073741820, 0, 917533, -1073741820, 0, 917534, -1073741820, 0, 917535, -1073741820, 0, 917536, -1073741818, 0, 917537, -1073741818, 0, 917538, -1073741818, 0, 917539, -1073741818, 0, 917540, -1073741818, 0, 917541, -1073741818, 0, 917542, -1073741818, 0, 917543, -1073741818, 0, 917544, -1073741818, 0, 917545, -1073741818, 0, 917546, -1073741818, 0, 917547, -1073741818, 0, 917548, -1073741818, 0, 917549, -1073741818, 0, 917550, -1073741818, 0, 917551, -1073741818, 0, 917552, -1073741818, 0, 917553, -1073741818, 0, 983048, -1073741818, 0, 983049, -1073741820, 0, 983050, -1073741820, 0, 983051, -1073741818, 0, 983053, -1073741818, 0, 983054, -1073741820, 0, 983055, -1073741820, 0, 983056, -1073741820, 0, 983057, -1073741820, 0, 983058, -1073741820, 0, 983059, -1073741818, 0, 983061, -1073741818, 0, 983062, -1073741820, 0, 983063, -1073741820, 0, 983064, -1073741820, 0, 983065, -1073741820, 0, 983066, -1073741820, 0, 983067, -1073741820, 0, 983068, -1073741820, 0, 983069, -1073741820, 0, 983070, -1073741820, 0, 983071, -1073741820, 0, 983072, -1073741818, 0, 1048584, -1073741818, 0, 1048585, -1073741820, 0, 1048586, -1073741820, 0, 1048587, -1073741818, 0, 1048588, -1073741818, 0, 1048589, -1073741818, 0, 1048590, -1073741820, 0, 1048591, -1073741820, 0, 1048592, -1073741820, 0, 1048593, -1073741820, 0, 1048594, -1073741820, 0, 1048595, -1073741818, 0, 1048596, -1073741818, 0, 1048597, -1073741818, 0, 1048598, -1073741820, 0, 1048599, -1073741820, 0, 1048600, -1073741820, 0, 1048601, -1073741820, 0, 1048602, -1073741820, 0, 1048603, -1073741820, 0, 1048604, -1073741820, 0, 1048605, -1073741820, 0, 1048606, -1073741820, 0, 1048607, -1073741820, 0, 1048608, -1073741818, 0, 1048609, -1073741818, 0, 1048610, -1073741818, 0, 1048611, -1073741818, 0, 1048612, -1073741818, 0, 1114120, -1073741818, 0, 1114121, -1073741820, 0, 1114122, -1073741820, 0, 1114123, -1073741820, 0, 1114124, -1073741820, 0, 1114125, -1073741820, 0, 1114126, -1073741820, 0, 1114127, -1073741820, 0, 1114128, -1073741820, 0, 1114129, -1073741820, 0, 1114130, -1073741820, 0, 1114131, -1073741820, 0, 1114132, -1073741820, 0, 1114133, -1073741820, 0, 1114134, -1073741820, 0, 1114135, -1073741820, 0, 1114136, -1073741820, 0, 1114137, -1073741820, 0, 1114138, -1073741820, 0, 1114139, -1073741820, 0, 1114140, -1073741820, 0, 1114141, -1073741820, 0, 1114142, -1073741820, 0, 1114143, -1073741820, 0, 1114144, -1073741820, 0, 1114145, -1073741820, 0, 1114146, -1073741820, 0, 1114147, -1073741820, 0, 1114148, -1073741818, 0, 1179656, -1073741818, 0, 1179657, -1073741820, 0, 1179658, -1073741820, 0, 1179659, -1073741820, 0, 1179660, -1073741820, 0, 1179661, -1073741820, 0, 1179662, -1073741820, 0, 1179663, -1073741820, 0, 1179664, -1073741820, 0, 1179665, -1073741820, 0, 1179666, -1073741820, 0, 1179667, -1073741820, 0, 1179668, -1073741820, 0, 1179669, -1073741820, 0, 1179670, -1073741820, 0, 1179671, -1073741820, 0, 1179672, -1073741820, 0, 1179673, -1073741820, 0, 1179674, -1073741820, 0, 1179675, -1073741820, 0, 1179676, -1073741820, 0, 1179677, -1073741820, 0, 1179678, -1073741820, 0, 1179679, -1073741820, 0, 1179680, -1073741820, 0, 1179681, -1073741820, 0, 1179682, -1073741820, 0, 1179683, -1073741820, 0, 1179684, -1073741818, 0, 1245192, -1073741818, 0, 1245193, -1073741818, 0, 1245194, -1073741818, 0, 1245195, -1073741818, 0, 1245196, -1073741818, 0, 1245197, -1073741818, 0, 1245198, -1073741818, 0, 1245199, -1073741818, 0, 1245200, -1073741818, 0, 1245201, -1073741818, 0, 1245202, -1073741818, 0, 1245203, -1073741818, 0, 1245204, -1073741818, 0, 1245205, -1073741818, 0, 1245206, -1073741818, 0, 1245207, -1073741818, 0, 1245208, -1073741818, 0, 1245209, -1073741818, 0, 1245210, -1073741818, 0, 1245211, -1073741818, 0, 1245212, -1073741818, 0, 1245213, -1073741818, 0, 1245214, -1073741818, 0, 1245215, -1073741818, 0, 1245216, -1073741818, 0, 1245217, -1073741818, 0, 1245218, -1073741818, 0, 1245219, -1073741818, 0, 1245220, -1073741818, 0 )
tile_loudness = {
"carpet_1": 0.75,
"grass_1": 1.0,
"gravel_1": 2.0,
"rock_1": 1.1,
"wood_1": 1.3
}

[node name="Player" parent="." instance=ExtResource( 1 )]
position = Vector2( 192, -1 )
