[gd_scene load_steps=174 format=2]

[ext_resource path="res://levels/tilemap/TilemapRuins.tscn" type="PackedScene" id=1]
[ext_resource path="res://entities/enemies/Patrol.gd" type="Script" id=2]
[ext_resource path="res://entities/enemies/wisp/Wisp.tscn" type="PackedScene" id=3]
[ext_resource path="res://entities/light/Torch.tscn" type="PackedScene" id=4]
[ext_resource path="res://entities/items/door/Door.tscn" type="PackedScene" id=5]
[ext_resource path="res://entities/enemies/armor/HauntedArmor.tscn" type="PackedScene" id=6]
[ext_resource path="res://entities/actions/ActionWait.gd" type="Script" id=7]
[ext_resource path="res://entities/actions/ActionGoWaypoint.gd" type="Script" id=8]
[ext_resource path="res://entities/actions/ActionLookAt.gd" type="Script" id=9]
[ext_resource path="res://entities/items/MoneyStack.tscn" type="PackedScene" id=10]
[ext_resource path="res://entities/items/chest/Chest.tscn" type="PackedScene" id=11]
[ext_resource path="res://entities/enemies/looter/Looter.tscn" type="PackedScene" id=12]
[ext_resource path="res://levels/Level.gd" type="Script" id=13]
[ext_resource path="res://ui/HUD.tscn" type="PackedScene" id=14]
[ext_resource path="res://entities/exit/Exit.tscn" type="PackedScene" id=15]
[ext_resource path="res://entities/items/artifacts/ArtifactShadowMat.tscn" type="PackedScene" id=16]
[ext_resource path="res://entities/items/artifacts/ArtifactShadowRush.tscn" type="PackedScene" id=17]
[ext_resource path="res://entities/items/artifacts/ArtifactShadowGrenade.tscn" type="PackedScene" id=18]
[ext_resource path="res://entities/items/artifacts/ArtifactShadeBlast.tscn" type="PackedScene" id=19]
[ext_resource path="res://entities/items/artifacts/ArtifactShadowDagger.tscn" type="PackedScene" id=20]
[ext_resource path="res://entities/player/Player.tscn" type="PackedScene" id=21]
[ext_resource path="res://entities/enemies/armor/HauntedArmorElite.tscn" type="PackedScene" id=22]

[sub_resource type="Resource" id=1]
script = ExtResource( 9 )
action_name = "Look at"
direction = 6

[sub_resource type="Resource" id=2]
script = ExtResource( 7 )
action_name = "Wait"
duration = 5.0

[sub_resource type="Resource" id=3]
script = ExtResource( 9 )
action_name = "Look at"
direction = 4

[sub_resource type="Resource" id=4]
script = ExtResource( 7 )
action_name = "Wait"
duration = 5.0

[sub_resource type="Resource" id=5]
script = ExtResource( 9 )
action_name = "Look at"
direction = 2

[sub_resource type="Resource" id=6]
script = ExtResource( 7 )
action_name = "Wait"
duration = 5.0

[sub_resource type="Resource" id=7]
script = ExtResource( 9 )
action_name = "Look at"
direction = 0

[sub_resource type="Resource" id=8]
script = ExtResource( 7 )
action_name = "Wait"
duration = 5.0

[sub_resource type="Resource" id=9]
script = ExtResource( 8 )
action_name = "Go to object"
target_node = NodePath("../../Patrol Points/PatrolPoint40")

[sub_resource type="Resource" id=10]
resource_local_to_scene = true
script = ExtResource( 2 )
actions = [ SubResource( 1 ), SubResource( 2 ), SubResource( 3 ), SubResource( 4 ), SubResource( 5 ), SubResource( 6 ), SubResource( 7 ), SubResource( 8 ), SubResource( 9 ) ]
behavior = 0

[sub_resource type="Resource" id=11]
script = ExtResource( 9 )
action_name = "Look at"
direction = 7

[sub_resource type="Resource" id=12]
script = ExtResource( 7 )
action_name = "Wait"
duration = 4.0

[sub_resource type="Resource" id=13]
script = ExtResource( 9 )
action_name = "Look at"
direction = 6

[sub_resource type="Resource" id=14]
script = ExtResource( 7 )
action_name = "Wait"
duration = 4.0

[sub_resource type="Resource" id=15]
script = ExtResource( 8 )
action_name = "Go to object"
target_node = NodePath("../../Patrol Points/PatrolPoint37")

[sub_resource type="Resource" id=16]
resource_local_to_scene = true
script = ExtResource( 2 )
actions = [ SubResource( 11 ), SubResource( 12 ), SubResource( 13 ), SubResource( 14 ), SubResource( 15 ) ]
behavior = 0

[sub_resource type="Resource" id=17]
script = ExtResource( 9 )
action_name = "Look at"
direction = 2

[sub_resource type="Resource" id=18]
script = ExtResource( 7 )
action_name = "Wait"
duration = 4.0

[sub_resource type="Resource" id=19]
script = ExtResource( 9 )
action_name = "Look at"
direction = 1

[sub_resource type="Resource" id=20]
script = ExtResource( 7 )
action_name = "Wait"
duration = 4.0

[sub_resource type="Resource" id=21]
script = ExtResource( 8 )
action_name = "Go to object"
target_node = NodePath("../../Patrol Points/PatrolPoint41")

[sub_resource type="Resource" id=22]
resource_local_to_scene = true
script = ExtResource( 2 )
actions = [ SubResource( 17 ), SubResource( 18 ), SubResource( 19 ), SubResource( 20 ), SubResource( 21 ) ]
behavior = 0

[sub_resource type="Resource" id=23]
script = ExtResource( 9 )
action_name = "Look at"
direction = 6

[sub_resource type="Resource" id=24]
script = ExtResource( 7 )
action_name = "Wait"
duration = 6.0

[sub_resource type="Resource" id=25]
script = ExtResource( 9 )
action_name = "Look at"
direction = 0

[sub_resource type="Resource" id=26]
script = ExtResource( 7 )
action_name = "Wait"
duration = 6.0

[sub_resource type="Resource" id=27]
script = ExtResource( 8 )
action_name = "Go to object"
target_node = NodePath("../../Patrol Points/PatrolPoint28")

[sub_resource type="Resource" id=28]
resource_local_to_scene = true
script = ExtResource( 2 )
actions = [ SubResource( 23 ), SubResource( 24 ), SubResource( 25 ), SubResource( 26 ), SubResource( 27 ) ]
behavior = 0

[sub_resource type="Resource" id=29]
script = ExtResource( 9 )
action_name = "Look at"
direction = 6

[sub_resource type="Resource" id=30]
script = ExtResource( 7 )
action_name = "Wait"
duration = 6.0

[sub_resource type="Resource" id=31]
script = ExtResource( 9 )
action_name = "Look at"
direction = 4

[sub_resource type="Resource" id=32]
script = ExtResource( 7 )
action_name = "Wait"
duration = 6.0

[sub_resource type="Resource" id=33]
script = ExtResource( 8 )
action_name = "Go to object"
target_node = NodePath("../../Patrol Points/PatrolPoint29")

[sub_resource type="Resource" id=34]
resource_local_to_scene = true
script = ExtResource( 2 )
actions = [ SubResource( 29 ), SubResource( 30 ), SubResource( 31 ), SubResource( 32 ), SubResource( 33 ) ]
behavior = 0

[sub_resource type="Resource" id=35]
script = ExtResource( 8 )
action_name = "Go to object"
target_node = NodePath("../../Patrol Points/PatrolPoint2")

[sub_resource type="Resource" id=36]
script = ExtResource( 8 )
action_name = "Go to object"
target_node = NodePath("../../Patrol Points/PatrolPoint3")

[sub_resource type="Resource" id=37]
script = ExtResource( 8 )
action_name = "Go to object"
target_node = NodePath("../../Patrol Points/PatrolPoint4")

[sub_resource type="Resource" id=38]
script = ExtResource( 8 )
action_name = "Go to object"
target_node = NodePath("../../Patrol Points/PatrolPoint1")

[sub_resource type="Resource" id=39]
resource_local_to_scene = true
script = ExtResource( 2 )
actions = [ SubResource( 35 ), SubResource( 36 ), SubResource( 37 ), SubResource( 38 ) ]
behavior = 0

[sub_resource type="Resource" id=40]
script = ExtResource( 8 )
action_name = "Go to object"
target_node = NodePath("../../Patrol Points/PatrolPoint1")

[sub_resource type="Resource" id=41]
script = ExtResource( 8 )
action_name = "Go to object"
target_node = NodePath("../../Patrol Points/PatrolPoint2")

[sub_resource type="Resource" id=42]
script = ExtResource( 8 )
action_name = "Go to object"
target_node = NodePath("../../Patrol Points/PatrolPoint3")

[sub_resource type="Resource" id=43]
script = ExtResource( 8 )
action_name = "Go to object"
target_node = NodePath("../../Patrol Points/PatrolPoint4")

[sub_resource type="Resource" id=44]
resource_local_to_scene = true
script = ExtResource( 2 )
actions = [ SubResource( 40 ), SubResource( 41 ), SubResource( 42 ), SubResource( 43 ) ]
behavior = 0

[sub_resource type="Resource" id=45]
resource_local_to_scene = true
script = ExtResource( 2 )
actions = [  ]
behavior = 0

[sub_resource type="Resource" id=46]
resource_local_to_scene = true
script = ExtResource( 2 )
actions = [  ]
behavior = 0

[sub_resource type="Resource" id=47]
resource_local_to_scene = true
script = ExtResource( 2 )
actions = [  ]
behavior = 0

[sub_resource type="Resource" id=48]
script = ExtResource( 9 )
action_name = "Look at"
direction = 2

[sub_resource type="Resource" id=49]
script = ExtResource( 7 )
action_name = "Wait"
duration = 7.0

[sub_resource type="Resource" id=50]
script = ExtResource( 9 )
action_name = "Look at"
direction = 0

[sub_resource type="Resource" id=51]
script = ExtResource( 7 )
action_name = "Wait"
duration = 7.0

[sub_resource type="Resource" id=52]
script = ExtResource( 8 )
action_name = "Go to object"
target_node = NodePath("../../Patrol Points/PatrolPoint30")

[sub_resource type="Resource" id=53]
resource_local_to_scene = true
script = ExtResource( 2 )
actions = [ SubResource( 48 ), SubResource( 49 ), SubResource( 50 ), SubResource( 51 ), SubResource( 52 ) ]
behavior = 0

[sub_resource type="Resource" id=54]
resource_local_to_scene = true
script = ExtResource( 2 )
actions = [  ]
behavior = 0

[sub_resource type="Resource" id=55]
script = ExtResource( 8 )
action_name = "Go to object"
target_node = NodePath("../../Patrol Points/PatrolPoint1")

[sub_resource type="Resource" id=56]
script = ExtResource( 8 )
action_name = "Go to object"
target_node = NodePath("../../Patrol Points/PatrolPoint2")

[sub_resource type="Resource" id=57]
script = ExtResource( 8 )
action_name = "Go to object"
target_node = NodePath("../../Patrol Points/PatrolPoint3")

[sub_resource type="Resource" id=58]
script = ExtResource( 8 )
action_name = "Go to object"
target_node = NodePath("../../Patrol Points/PatrolPoint4")

[sub_resource type="Resource" id=59]
resource_local_to_scene = true
script = ExtResource( 2 )
actions = [ SubResource( 55 ), SubResource( 56 ), SubResource( 57 ), SubResource( 58 ) ]
behavior = 0

[sub_resource type="Resource" id=60]
script = ExtResource( 8 )
action_name = "Go to object"
target_node = NodePath("../../Patrol Points/PatrolPoint2")

[sub_resource type="Resource" id=61]
script = ExtResource( 8 )
action_name = "Go to object"
target_node = NodePath("../../Patrol Points/PatrolPoint3")

[sub_resource type="Resource" id=62]
script = ExtResource( 8 )
action_name = "Go to object"
target_node = NodePath("../../Patrol Points/PatrolPoint4")

[sub_resource type="Resource" id=63]
script = ExtResource( 8 )
action_name = "Go to object"
target_node = NodePath("../../Patrol Points/PatrolPoint1")

[sub_resource type="Resource" id=64]
resource_local_to_scene = true
script = ExtResource( 2 )
actions = [ SubResource( 60 ), SubResource( 61 ), SubResource( 62 ), SubResource( 63 ) ]
behavior = 0

[sub_resource type="Resource" id=65]
script = ExtResource( 8 )
action_name = "Go to object"
target_node = NodePath("../../Patrol Points/PatrolPoint3")

[sub_resource type="Resource" id=66]
script = ExtResource( 8 )
action_name = "Go to object"
target_node = NodePath("../../Patrol Points/PatrolPoint4")

[sub_resource type="Resource" id=67]
script = ExtResource( 8 )
action_name = "Go to object"
target_node = NodePath("../../Patrol Points/PatrolPoint1")

[sub_resource type="Resource" id=68]
script = ExtResource( 8 )
action_name = "Go to object"
target_node = NodePath("../../Patrol Points/PatrolPoint2")

[sub_resource type="Resource" id=69]
resource_local_to_scene = true
script = ExtResource( 2 )
actions = [ SubResource( 65 ), SubResource( 66 ), SubResource( 67 ), SubResource( 68 ) ]
behavior = 0

[sub_resource type="Resource" id=70]
script = ExtResource( 8 )
action_name = "Go to object"
target_node = NodePath("../../Patrol Points/PatrolPoint4")

[sub_resource type="Resource" id=71]
script = ExtResource( 8 )
action_name = "Go to object"
target_node = NodePath("../../Patrol Points/PatrolPoint1")

[sub_resource type="Resource" id=72]
script = ExtResource( 8 )
action_name = "Go to object"
target_node = NodePath("../../Patrol Points/PatrolPoint2")

[sub_resource type="Resource" id=73]
script = ExtResource( 8 )
action_name = "Go to object"
target_node = NodePath("../../Patrol Points/PatrolPoint3")

[sub_resource type="Resource" id=74]
resource_local_to_scene = true
script = ExtResource( 2 )
actions = [ SubResource( 70 ), SubResource( 71 ), SubResource( 72 ), SubResource( 73 ) ]
behavior = 0

[sub_resource type="Resource" id=75]
script = ExtResource( 8 )
action_name = "Go to object"
target_node = NodePath("../../Patrol Points/PatrolPoint5")

[sub_resource type="Resource" id=76]
script = ExtResource( 7 )
action_name = "Wait"
duration = 4.0

[sub_resource type="Resource" id=77]
script = ExtResource( 8 )
action_name = "Go to object"
target_node = NodePath("../../Patrol Points/PatrolPoint8")

[sub_resource type="Resource" id=78]
script = ExtResource( 7 )
action_name = "Wait"
duration = 4.0

[sub_resource type="Resource" id=79]
resource_local_to_scene = true
script = ExtResource( 2 )
actions = [ SubResource( 75 ), SubResource( 76 ), SubResource( 77 ), SubResource( 78 ) ]
behavior = 0

[sub_resource type="Resource" id=80]
script = ExtResource( 9 )
action_name = "Look at"
direction = 3

[sub_resource type="Resource" id=81]
script = ExtResource( 7 )
action_name = "Wait"
duration = 4.0

[sub_resource type="Resource" id=82]
script = ExtResource( 9 )
action_name = "Look at"
direction = 2

[sub_resource type="Resource" id=83]
script = ExtResource( 7 )
action_name = "Wait"
duration = 4.0

[sub_resource type="Resource" id=84]
script = ExtResource( 8 )
action_name = "Go to object"
target_node = NodePath("../../Patrol Points/PatrolPoint42")

[sub_resource type="Resource" id=85]
resource_local_to_scene = true
script = ExtResource( 2 )
actions = [ SubResource( 80 ), SubResource( 81 ), SubResource( 82 ), SubResource( 83 ), SubResource( 84 ) ]
behavior = 0

[sub_resource type="Resource" id=86]
script = ExtResource( 9 )
action_name = "Look at"
direction = 5

[sub_resource type="Resource" id=87]
script = ExtResource( 7 )
action_name = "Wait"
duration = 4.0

[sub_resource type="Resource" id=88]
script = ExtResource( 9 )
action_name = "Look at"
direction = 4

[sub_resource type="Resource" id=89]
script = ExtResource( 7 )
action_name = "Wait"
duration = 4.0

[sub_resource type="Resource" id=90]
script = ExtResource( 8 )
action_name = "Go to object"
target_node = NodePath("../../Patrol Points/PatrolPoint38")

[sub_resource type="Resource" id=91]
resource_local_to_scene = true
script = ExtResource( 2 )
actions = [ SubResource( 86 ), SubResource( 87 ), SubResource( 88 ), SubResource( 89 ), SubResource( 90 ) ]
behavior = 0

[sub_resource type="Resource" id=92]
script = ExtResource( 8 )
action_name = "Go to object"
target_node = NodePath("../../Patrol Points/PatrolPoint7")

[sub_resource type="Resource" id=93]
script = ExtResource( 7 )
action_name = "Wait"
duration = 1.0

[sub_resource type="Resource" id=94]
script = ExtResource( 8 )
action_name = "Go to object"
target_node = NodePath("../../Patrol Points/PatrolPoint8")

[sub_resource type="Resource" id=95]
script = ExtResource( 7 )
action_name = "Wait"
duration = 1.0

[sub_resource type="Resource" id=96]
script = ExtResource( 8 )
action_name = "Go to object"
target_node = NodePath("../../Patrol Points/PatrolPoint6")

[sub_resource type="Resource" id=97]
script = ExtResource( 7 )
action_name = "Wait"
duration = 1.0

[sub_resource type="Resource" id=98]
script = ExtResource( 8 )
action_name = "Go to object"
target_node = NodePath("../../Patrol Points/PatrolPoint5")

[sub_resource type="Resource" id=99]
script = ExtResource( 7 )
action_name = "Wait"
duration = 1.0

[sub_resource type="Resource" id=100]
resource_local_to_scene = true
script = ExtResource( 2 )
actions = [ SubResource( 92 ), SubResource( 93 ), SubResource( 94 ), SubResource( 95 ), SubResource( 96 ), SubResource( 97 ), SubResource( 98 ), SubResource( 99 ) ]
behavior = 0

[sub_resource type="Resource" id=101]
script = ExtResource( 8 )
action_name = "Go to object"
target_node = NodePath("../../Patrol Points/PatrolPoint25")

[sub_resource type="Resource" id=102]
script = ExtResource( 8 )
action_name = "Go to object"
target_node = NodePath("../../Patrol Points/PatrolPoint24")

[sub_resource type="Resource" id=103]
resource_local_to_scene = true
script = ExtResource( 2 )
actions = [ SubResource( 101 ), SubResource( 102 ) ]
behavior = 0

[sub_resource type="Resource" id=104]
script = ExtResource( 8 )
action_name = "Go to object"
target_node = NodePath("../../Patrol Points/PatrolPoint13")

[sub_resource type="Resource" id=105]
script = ExtResource( 7 )
action_name = "Wait"
duration = 2.0

[sub_resource type="Resource" id=106]
script = ExtResource( 8 )
action_name = "Go to object"
target_node = NodePath("../../Patrol Points/PatrolPoint14")

[sub_resource type="Resource" id=107]
script = ExtResource( 8 )
action_name = "Go to object"
target_node = NodePath("../../Patrol Points/PatrolPoint15")

[sub_resource type="Resource" id=108]
script = ExtResource( 7 )
action_name = "Wait"
duration = 2.0

[sub_resource type="Resource" id=109]
script = ExtResource( 8 )
action_name = "Go to object"
target_node = NodePath("../../Patrol Points/PatrolPoint14")

[sub_resource type="Resource" id=110]
resource_local_to_scene = true
script = ExtResource( 2 )
actions = [ SubResource( 104 ), SubResource( 105 ), SubResource( 106 ), SubResource( 107 ), SubResource( 108 ), SubResource( 109 ) ]
behavior = 0

[sub_resource type="Resource" id=111]
script = ExtResource( 8 )
action_name = "Go to object"
target_node = NodePath("../../Patrol Points/PatrolPoint16")

[sub_resource type="Resource" id=112]
script = ExtResource( 8 )
action_name = "Go to object"
target_node = NodePath("../../Patrol Points/PatrolPoint17")

[sub_resource type="Resource" id=113]
resource_local_to_scene = true
script = ExtResource( 2 )
actions = [ SubResource( 111 ), SubResource( 112 ) ]
behavior = 0

[sub_resource type="Resource" id=114]
script = ExtResource( 8 )
action_name = "Go to object"
target_node = NodePath("../../Patrol Points/PatrolPoint12")

[sub_resource type="Resource" id=115]
script = ExtResource( 9 )
action_name = "Look at"
direction = 2

[sub_resource type="Resource" id=116]
script = ExtResource( 7 )
action_name = "Wait"
duration = 6.0

[sub_resource type="Resource" id=117]
script = ExtResource( 8 )
action_name = "Go to object"
target_node = NodePath("../../Patrol Points/PatrolPoint9")

[sub_resource type="Resource" id=118]
script = ExtResource( 8 )
action_name = "Go to object"
target_node = NodePath("../../Patrol Points/PatrolPoint10")

[sub_resource type="Resource" id=119]
script = ExtResource( 8 )
action_name = "Go to object"
target_node = NodePath("../../Patrol Points/PatrolPoint11")

[sub_resource type="Resource" id=120]
script = ExtResource( 7 )
action_name = "Wait"
duration = 4.0

[sub_resource type="Resource" id=121]
script = ExtResource( 8 )
action_name = "Go to object"
target_node = NodePath("../../Patrol Points/PatrolPoint10")

[sub_resource type="Resource" id=122]
script = ExtResource( 8 )
action_name = "Go to object"
target_node = NodePath("../../Patrol Points/PatrolPoint9")

[sub_resource type="Resource" id=123]
resource_local_to_scene = true
script = ExtResource( 2 )
actions = [ SubResource( 114 ), SubResource( 115 ), SubResource( 116 ), SubResource( 117 ), SubResource( 118 ), SubResource( 119 ), SubResource( 120 ), SubResource( 121 ), SubResource( 122 ) ]
behavior = 0

[sub_resource type="Resource" id=124]
script = ExtResource( 8 )
action_name = "Go to object"
target_node = NodePath("../../Patrol Points/PatrolPoint18")

[sub_resource type="Resource" id=125]
script = ExtResource( 8 )
action_name = "Go to object"
target_node = NodePath("../../Patrol Points/PatrolPoint19")

[sub_resource type="Resource" id=126]
script = ExtResource( 8 )
action_name = "Go to object"
target_node = NodePath("../../Patrol Points/PatrolPoint20")

[sub_resource type="Resource" id=127]
resource_local_to_scene = true
script = ExtResource( 2 )
actions = [ SubResource( 124 ), SubResource( 125 ), SubResource( 126 ) ]
behavior = 0

[sub_resource type="Resource" id=128]
script = ExtResource( 8 )
action_name = "Go to object"
target_node = NodePath("../../Patrol Points/PatrolPoint23")

[sub_resource type="Resource" id=129]
script = ExtResource( 8 )
action_name = "Go to object"
target_node = NodePath("../../Patrol Points/PatrolPoint22")

[sub_resource type="Resource" id=130]
script = ExtResource( 8 )
action_name = "Go to object"
target_node = NodePath("../../Patrol Points/PatrolPoint21")

[sub_resource type="Resource" id=131]
resource_local_to_scene = true
script = ExtResource( 2 )
actions = [ SubResource( 128 ), SubResource( 129 ), SubResource( 130 ) ]
behavior = 0

[sub_resource type="Resource" id=132]
resource_local_to_scene = true
script = ExtResource( 2 )
actions = [  ]
behavior = 0

[sub_resource type="Resource" id=133]
script = ExtResource( 8 )
action_name = "Go to object"
target_node = NodePath("../../Patrol Points/PatrolPoint26")

[sub_resource type="Resource" id=134]
script = ExtResource( 8 )
action_name = "Go to object"
target_node = NodePath("../../Patrol Points/PatrolPoint27")

[sub_resource type="Resource" id=135]
resource_local_to_scene = true
script = ExtResource( 2 )
actions = [ SubResource( 133 ), SubResource( 134 ) ]
behavior = 1

[sub_resource type="Resource" id=136]
script = ExtResource( 8 )
action_name = "Go to object"
target_node = NodePath("../../Patrol Points/PatrolPoint39")

[sub_resource type="Resource" id=137]
script = ExtResource( 9 )
action_name = "Look at"
direction = 6

[sub_resource type="Resource" id=138]
script = ExtResource( 7 )
action_name = "Wait"
duration = 6.0

[sub_resource type="Resource" id=139]
script = ExtResource( 9 )
action_name = "Look at"
direction = 0

[sub_resource type="Resource" id=140]
script = ExtResource( 7 )
action_name = "Wait"
duration = 6.0

[sub_resource type="Resource" id=141]
script = ExtResource( 9 )
action_name = "Look at"
direction = 2

[sub_resource type="Resource" id=142]
script = ExtResource( 7 )
action_name = "Wait"
duration = 6.0

[sub_resource type="Resource" id=143]
resource_local_to_scene = true
script = ExtResource( 2 )
actions = [ SubResource( 136 ), SubResource( 137 ), SubResource( 138 ), SubResource( 139 ), SubResource( 140 ), SubResource( 141 ), SubResource( 142 ) ]
behavior = 0

[sub_resource type="Resource" id=144]
script = ExtResource( 8 )
action_name = "Go to object"
target_node = NodePath("../../Patrol Points/PatrolPoint31")

[sub_resource type="Resource" id=145]
script = ExtResource( 9 )
action_name = "Look at"
direction = 5

[sub_resource type="Resource" id=146]
script = ExtResource( 7 )
action_name = "Wait"
duration = 4.0

[sub_resource type="Resource" id=147]
script = ExtResource( 9 )
action_name = "Look at"
direction = 3

[sub_resource type="Resource" id=148]
script = ExtResource( 7 )
action_name = "Wait"
duration = 4.0

[sub_resource type="Resource" id=149]
script = ExtResource( 9 )
action_name = "Look at"
direction = 1

[sub_resource type="Resource" id=150]
script = ExtResource( 7 )
action_name = "Wait"
duration = 4.0

[sub_resource type="Resource" id=151]
resource_local_to_scene = true
script = ExtResource( 2 )
actions = [ SubResource( 144 ), SubResource( 145 ), SubResource( 146 ), SubResource( 147 ), SubResource( 148 ), SubResource( 149 ), SubResource( 150 ) ]
behavior = 0

[node name="Level 2" type="Node2D"]
script = ExtResource( 13 )
HUDScene = ExtResource( 14 )

[node name="Player" parent="." instance=ExtResource( 21 )]
position = Vector2( 992.95, 367.933 )

[node name="Patrol Points" type="Node2D" parent="."]

[node name="PatrolPoint1" type="Position2D" parent="Patrol Points"]
position = Vector2( 1415.34, 2742.95 )

[node name="PatrolPoint2" type="Position2D" parent="Patrol Points"]
position = Vector2( 3256.58, 2742.95 )

[node name="PatrolPoint3" type="Position2D" parent="Patrol Points"]
position = Vector2( 3256.58, 892.865 )

[node name="PatrolPoint4" type="Position2D" parent="Patrol Points"]
position = Vector2( 1406.49, 892.865 )

[node name="PatrolPoint5" type="Position2D" parent="Patrol Points"]
position = Vector2( 5486.22, 1671.32 )

[node name="PatrolPoint6" type="Position2D" parent="Patrol Points"]
position = Vector2( 6142.34, 2368.73 )

[node name="PatrolPoint7" type="Position2D" parent="Patrol Points"]
position = Vector2( 6142.34, 1016.24 )

[node name="PatrolPoint8" type="Position2D" parent="Patrol Points"]
position = Vector2( 6781.06, 1671.32 )

[node name="PatrolPoint9" type="Position2D" parent="Patrol Points"]
position = Vector2( 8961.68, -1697.46 )

[node name="PatrolPoint10" type="Position2D" parent="Patrol Points"]
position = Vector2( 8961.68, -287.297 )

[node name="PatrolPoint11" type="Position2D" parent="Patrol Points"]
position = Vector2( 7147.18, -287.297 )

[node name="PatrolPoint12" type="Position2D" parent="Patrol Points"]
position = Vector2( 9678.4, -1697.46 )

[node name="PatrolPoint13" type="Position2D" parent="Patrol Points"]
position = Vector2( 7230.65, -1262.2 )

[node name="PatrolPoint14" type="Position2D" parent="Patrol Points"]
position = Vector2( 6356.39, -1274.47 )

[node name="PatrolPoint15" type="Position2D" parent="Patrol Points"]
position = Vector2( 6356.39, -287.297 )

[node name="PatrolPoint16" type="Position2D" parent="Patrol Points"]
position = Vector2( 8863.5, -1993.93 )

[node name="PatrolPoint17" type="Position2D" parent="Patrol Points"]
position = Vector2( 7320.55, -1993.93 )

[node name="PatrolPoint18" type="Position2D" parent="Patrol Points"]
position = Vector2( 11939.4, -1306.47 )

[node name="PatrolPoint19" type="Position2D" parent="Patrol Points"]
position = Vector2( 11666.1, -246.544 )

[node name="PatrolPoint20" type="Position2D" parent="Patrol Points"]
position = Vector2( 12686.1, -246.544 )

[node name="PatrolPoint21" type="Position2D" parent="Patrol Points"]
position = Vector2( 12686.1, 964.081 )

[node name="PatrolPoint22" type="Position2D" parent="Patrol Points"]
position = Vector2( 11666.1, 961.267 )

[node name="PatrolPoint23" type="Position2D" parent="Patrol Points"]
position = Vector2( 11939.4, 2191.59 )

[node name="PatrolPoint24" type="Position2D" parent="Patrol Points"]
position = Vector2( 8991.9, 2426.13 )

[node name="PatrolPoint25" type="Position2D" parent="Patrol Points"]
position = Vector2( 8992.63, 834.686 )

[node name="PatrolPoint26" type="Position2D" parent="Patrol Points"]
position = Vector2( 1922.46, 364.291 )

[node name="PatrolPoint27" type="Position2D" parent="Patrol Points"]
position = Vector2( 4274.43, 364.291 )

[node name="PatrolPoint28" type="Position2D" parent="Patrol Points"]
position = Vector2( 2464.48, -342.909 )

[node name="PatrolPoint29" type="Position2D" parent="Patrol Points"]
position = Vector2( 3926.82, -354.896 )

[node name="PatrolPoint30" type="Position2D" parent="Patrol Points"]
position = Vector2( 5293.28, -151.126 )

[node name="PatrolPoint31" type="Position2D" parent="Patrol Points"]
position = Vector2( 7860.68, -1536.19 )

[node name="PatrolPoint32" type="Position2D" parent="Patrol Points"]
position = Vector2( 12379.1, -256.264 )

[node name="PatrolPoint33" type="Position2D" parent="Patrol Points"]
position = Vector2( 12379.7, 962.496 )

[node name="PatrolPoint34" type="Position2D" parent="Patrol Points"]
position = Vector2( 8423.54, 1096.05 )

[node name="PatrolPoint35" type="Position2D" parent="Patrol Points"]
position = Vector2( 9502.03, 1569.78 )

[node name="PatrolPoint36" type="Position2D" parent="Patrol Points"]
position = Vector2( 8444.83, 2004.94 )

[node name="PatrolPoint37" type="Position2D" parent="Patrol Points"]
position = Vector2( 5412.56, 1016.49 )

[node name="PatrolPoint38" type="Position2D" parent="Patrol Points"]
position = Vector2( 6725.45, 1016.49 )

[node name="PatrolPoint39" type="Position2D" parent="Patrol Points"]
position = Vector2( 3763.5, 1435.14 )

[node name="PatrolPoint40" type="Position2D" parent="Patrol Points"]
position = Vector2( 2486.27, 1820.17 )

[node name="PatrolPoint41" type="Position2D" parent="Patrol Points"]
position = Vector2( 5462.28, 2362.17 )

[node name="PatrolPoint42" type="Position2D" parent="Patrol Points"]
position = Vector2( 6760.28, 2304.17 )

[node name="Enemies" type="Node2D" parent="."]

[node name="HauntedArmor7" parent="Enemies" instance=ExtResource( 6 )]
position = Vector2( 2486.52, 1812.06 )
clue_priorities = {
0: 1,
1: 1,
2: 3,
3: 1,
4: 0,
6: 2
}
patrol_actions = SubResource( 10 )

[node name="HauntedArmor13" parent="Enemies" instance=ExtResource( 6 )]
position = Vector2( 5415.07, 1010.93 )
initial_direction = 0
clue_priorities = {
0: 1,
1: 1,
2: 3,
3: 1,
4: 0,
6: 2
}
patrol_actions = SubResource( 16 )

[node name="HauntedArmor20" parent="Enemies" instance=ExtResource( 6 )]
position = Vector2( 5461.64, 2367.23 )
initial_direction = 2
clue_priorities = {
0: 1,
1: 1,
2: 3,
3: 1,
4: 0,
6: 2
}
patrol_actions = SubResource( 22 )

[node name="HauntedArmor" parent="Enemies" instance=ExtResource( 6 )]
position = Vector2( 2460.22, -341.871 )
initial_direction = 0
clue_priorities = {
0: 1,
1: 1,
2: 3,
3: 1,
4: 0,
6: 2
}
patrol_actions = SubResource( 28 )

[node name="HauntedArmor2" parent="Enemies" instance=ExtResource( 6 )]
position = Vector2( 3913.82, -351.188 )
initial_direction = 4
clue_priorities = {
0: 1,
1: 1,
2: 3,
3: 1,
4: 0,
6: 2
}
patrol_actions = SubResource( 34 )

[node name="HauntedArmor4" parent="Enemies" instance=ExtResource( 6 )]
position = Vector2( 2328.55, 2758.73 )
initial_direction = 0
clue_priorities = {
0: 1,
1: 1,
2: 3,
3: 1,
4: 0,
6: 2
}
patrol_actions = SubResource( 39 )

[node name="HauntedArmor3" parent="Enemies" instance=ExtResource( 6 )]
position = Vector2( 1399.37, 1299.93 )
clue_priorities = {
0: 1,
1: 1,
2: 3,
3: 1,
4: 0,
6: 2
}
patrol_actions = SubResource( 44 )

[node name="HauntedArmor16" parent="Enemies" instance=ExtResource( 6 )]
position = Vector2( 8410.64, 1096.89 )
initial_direction = 0
clue_priorities = {
0: 1,
1: 1,
2: 3,
3: 1,
4: 0,
6: 2
}
patrol_actions = SubResource( 45 )

[node name="HauntedArmor5" parent="Enemies" instance=ExtResource( 6 )]
position = Vector2( 9518.68, 1573.91 )
initial_direction = 4
clue_priorities = {
0: 1,
1: 1,
2: 3,
3: 1,
4: 0,
6: 2
}
patrol_actions = SubResource( 46 )

[node name="HauntedArmor10" parent="Enemies" instance=ExtResource( 6 )]
position = Vector2( 8429.2, 2010.03 )
initial_direction = 0
clue_priorities = {
0: 1,
1: 1,
2: 3,
3: 1,
4: 0,
6: 2
}
patrol_actions = SubResource( 47 )

[node name="HauntedArmor9" parent="Enemies" instance=ExtResource( 6 )]
position = Vector2( 5311.06, -165.98 )
initial_direction = 2
clue_priorities = {
0: 1,
1: 1,
2: 3,
3: 1,
4: 0,
6: 2
}
patrol_actions = SubResource( 53 )

[node name="HauntedArmor17" parent="Enemies" instance=ExtResource( 6 )]
position = Vector2( 12385.9, 961.267 )
initial_direction = 4
clue_priorities = {
0: 1,
1: 1,
2: 3,
3: 1,
4: 0,
6: 2
}
patrol_actions = SubResource( 54 )

[node name="HauntedArmor18" parent="Enemies" instance=ExtResource( 6 )]
position = Vector2( 12385.9, -255.948 )
initial_direction = 4
clue_priorities = {
0: 1,
1: 1,
2: 3,
3: 1,
4: 0,
6: 2
}
patrol_actions = SubResource( 54 )

[node name="Wisp2" parent="Enemies" instance=ExtResource( 3 )]
position = Vector2( 1416.59, 2216.51 )
initial_direction = 0
clue_priorities = {

}
patrol_actions = SubResource( 59 )

[node name="Wisp7" parent="Enemies" instance=ExtResource( 3 )]
position = Vector2( 3195.58, 2767.04 )
clue_priorities = {

}
patrol_actions = SubResource( 64 )

[node name="HauntedArmor6" parent="Enemies" instance=ExtResource( 6 )]
position = Vector2( 3232.29, 1368.41 )
initial_direction = 2
clue_priorities = {
0: 1,
1: 1,
2: 3,
3: 1,
4: 0,
6: 2
}
patrol_actions = SubResource( 69 )

[node name="Wisp3" parent="Enemies" instance=ExtResource( 3 )]
position = Vector2( 2749.38, 881.656 )
clue_priorities = {

}
patrol_actions = SubResource( 74 )

[node name="Wisp4" parent="Enemies" instance=ExtResource( 3 )]
position = Vector2( 5485.9, 1662.91 )
clue_priorities = {

}
patrol_actions = SubResource( 79 )

[node name="HauntedArmor19" parent="Enemies" instance=ExtResource( 6 )]
position = Vector2( 6767.61, 2307.15 )
initial_direction = 4
clue_priorities = {
0: 1,
1: 1,
2: 3,
3: 1,
4: 0,
6: 2
}
patrol_actions = SubResource( 85 )

[node name="HauntedArmor11" parent="Enemies" instance=ExtResource( 6 )]
position = Vector2( 6733.39, 1006.07 )
clue_priorities = {
0: 1,
1: 1,
2: 3,
3: 1,
4: 0,
6: 2
}
patrol_actions = SubResource( 91 )

[node name="Wisp5" parent="Enemies" instance=ExtResource( 3 )]
position = Vector2( 6142.34, 1009.55 )
clue_priorities = {

}
patrol_actions = SubResource( 100 )

[node name="Wisp6" parent="Enemies" instance=ExtResource( 3 )]
position = Vector2( 8991.9, 834.06 )
clue_priorities = {

}
patrol_actions = SubResource( 103 )

[node name="Wisp8" parent="Enemies" instance=ExtResource( 3 )]
position = Vector2( 7285.69, -1272.69 )
clue_priorities = {

}
patrol_actions = SubResource( 110 )

[node name="Wisp9" parent="Enemies" instance=ExtResource( 3 )]
position = Vector2( 8865.26, -2001.91 )
clue_priorities = {

}
patrol_actions = SubResource( 113 )

[node name="HauntedArmor14" parent="Enemies" instance=ExtResource( 6 )]
position = Vector2( 9689.5, -1703.22 )
initial_direction = 2
clue_priorities = {
0: 1,
1: 1,
2: 3,
3: 1,
4: 0,
6: 2
}
patrol_actions = SubResource( 123 )

[node name="Wisp10" parent="Enemies" instance=ExtResource( 3 )]
position = Vector2( 11933, -1309.57 )
clue_priorities = {

}
patrol_actions = SubResource( 127 )

[node name="Wisp11" parent="Enemies" instance=ExtResource( 3 )]
position = Vector2( 11946.3, 2188.24 )
clue_priorities = {

}
patrol_actions = SubResource( 131 )

[node name="Looter" parent="Enemies" instance=ExtResource( 12 )]
position = Vector2( 1548.71, 3627.34 )
initial_direction = 2
clue_priorities = {
1: 1,
2: 3,
5: 0,
6: 2
}
patrol_actions = SubResource( 132 )

[node name="Looter2" parent="Enemies" instance=ExtResource( 12 )]
position = Vector2( 4121.8, -2100.34 )
initial_direction = 0
clue_priorities = {
1: 1,
2: 3,
5: 0,
6: 2
}
patrol_actions = SubResource( 132 )

[node name="Looter3" parent="Enemies" instance=ExtResource( 12 )]
position = Vector2( 13728, 392 )
initial_direction = 4
clue_priorities = {
1: 1,
2: 3,
5: 0,
6: 2
}
patrol_actions = SubResource( 132 )

[node name="Wisp" parent="Enemies" instance=ExtResource( 3 )]
position = Vector2( 1918.51, 357.332 )
clue_priorities = {

}
patrol_actions = SubResource( 135 )

[node name="EliteArmor" parent="Enemies" instance=ExtResource( 22 )]
position = Vector2( 3759.54, 1420.91 )
clue_priorities = {
0: 1,
1: 1,
2: 3,
3: 1,
4: 0,
6: 2
}
patrol_actions = SubResource( 143 )

[node name="HauntedArmor8" parent="Enemies" instance=ExtResource( 6 )]
position = Vector2( 7878.39, -1551.16 )
clue_priorities = {
0: 1,
1: 1,
2: 3,
3: 1,
4: 0,
6: 2
}
patrol_actions = SubResource( 151 )

[node name="Map" type="Node2D" parent="."]

[node name="Door Hallway" parent="Map" instance=ExtResource( 1 )]
tile_data = PoolIntArray( -1572832, 3, 0, -1507297, 3, 0, -1507296, 3, 0, -1507295, 3, 0, -1441762, 6, 0, -1441761, 3, 0, -1441760, 3, 0, -1441759, 3, 0, -1441758, 6, 0, -1376226, 6, 0, -1376225, 3, 0, -1376224, 3, 0, -1376223, 3, 0, -1376222, 6, 0, -1310690, 6, 0, -1310689, 3, 0, -1310688, 3, 0, -1310687, 3, 0, -1310686, 6, 0, -1245154, 6, 0, -1245153, 3, 0, -1245152, 3, 0, -1245151, 3, 0, -1245150, 6, 0, -1245149, 6, 0, -1245148, 6, 0, -1245147, 6, 0, -1245146, 6, 0, -1245145, 6, 0, -1245144, 6, 0, -1245143, 6, 0, -1245142, 6, 0, -1245141, 6, 0, -1245140, 6, 0, -1245139, 6, 0, -1245138, 6, 0, -1245137, 6, 0, -1245136, 6, 0, -1245135, 6, 0, -1245134, 6, 0, -1245133, 6, 0, -1245132, 6, 0, -1245131, 6, 0, -1245130, 6, 0, -1245129, 6, 0, -1245128, 6, 0, -1245127, 6, 0, -1245126, 6, 0, -1245125, 6, 0, -1245124, 6, 0, -1245123, 6, 0, -1245122, 6, 0, -1245121, 6, 0, -1245120, 6, 0, -1245119, 6, 0, -1245118, 6, 0, -1245117, 6, 0, -1245116, 6, 0, -1245115, 6, 0, -1245114, 6, 0, -1245113, 6, 0, -1245112, 6, 0, -1245111, 6, 0, -1245110, 6, 0, -1245109, 6, 0, -1245108, 6, 0, -1245107, 6, 0, -1245106, 6, 0, -1179618, 6, 0, -1179617, 3, 0, -1179616, 3, 0, -1179615, 3, 0, -1179614, 3, 0, -1179613, 3, 0, -1179612, 3, 0, -1179611, 3, 0, -1179610, 3, 0, -1179609, 3, 0, -1179608, 1, 0, -1179607, 1, 0, -1179606, 1, 0, -1179605, 1, 0, -1179604, 1, 0, -1179603, 1, 0, -1179602, 1, 0, -1179601, 1, 0, -1179600, 1, 0, -1179599, 1, 0, -1179598, 1, 0, -1179597, 1, 0, -1179596, 1, 0, -1179595, 1, 0, -1179594, 1, 0, -1179593, 1, 0, -1179592, 1, 0, -1179591, 1, 0, -1179590, 1, 0, -1179589, 1, 0, -1179588, 1, 0, -1179587, 1, 0, -1179586, 1, 0, -1179585, 1, 0, -1179584, 1, 0, -1179583, 1, 0, -1179582, 1, 0, -1179581, 1, 0, -1179580, 1, 0, -1179579, 1, 0, -1179578, 1, 0, -1179577, 1, 0, -1179576, 6, 0, -1179575, 3, 0, -1179574, 3, 0, -1179573, 3, 0, -1179572, 3, 0, -1179571, 3, 0, -1179570, 6, 0, -1114082, 6, 0, -1114081, 3, 0, -1114080, 3, 0, -1114079, 3, 0, -1114078, 3, 0, -1114077, 3, 0, -1114076, 3, 0, -1114075, 3, 0, -1114074, 3, 0, -1114073, 3, 0, -1114072, 1, 0, -1114071, 1, 0, -1114070, 1, 0, -1114069, 1, 0, -1114068, 1, 0, -1114067, 1, 0, -1114066, 1, 0, -1114065, 1, 0, -1114064, 1, 0, -1114063, 1, 0, -1114062, 1, 0, -1114061, 1, 0, -1114060, 1, 0, -1114059, 1, 0, -1114058, 1, 0, -1114057, 1, 0, -1114056, 1, 0, -1114055, 1, 0, -1114054, 1, 0, -1114053, 1, 0, -1114052, 1, 0, -1114051, 1, 0, -1114050, 1, 0, -1114049, 1, 0, -1114048, 1, 0, -1114047, 1, 0, -1114046, 1, 0, -1114045, 1, 0, -1114044, 1, 0, -1114043, 1, 0, -1114042, 1, 0, -1114041, 1, 0, -1114040, 6, 0, -1114039, 3, 0, -1114038, 3, 0, -1114037, 3, 0, -1114036, 3, 0, -1114035, 3, 0, -1114034, 6, 0, -1048546, 6, 0, -1048545, 3, 0, -1048544, 3, 0, -1048543, 3, 0, -1048542, 3, 0, -1048541, 3, 0, -1048540, 3, 0, -1048539, 3, 0, -1048538, 3, 0, -1048537, 3, 0, -1048536, 1, 0, -1048535, 1, 0, -1048534, 1, 0, -1048533, 1, 0, -1048532, 1, 0, -1048531, 1, 0, -1048530, 1, 0, -1048529, 1, 0, -1048528, 6, 0, -1048527, 6, 0, -1048526, 6, 0, -1048525, 6, 0, -1048524, 6, 0, -1048523, 6, 0, -1048522, 6, 0, -1048521, 1, 0, -1048520, 1, 0, -1048519, 1, 0, -1048518, 1, 0, -1048517, 1, 0, -1048516, 1, 0, -1048515, 1, 0, -1048514, 1, 0, -1048513, 1, 0, -1048512, 1, 0, -1048511, 1, 0, -1048510, 1, 0, -1048509, 1, 0, -1048508, 1, 0, -1048507, 1, 0, -1048506, 1, 0, -1048505, 1, 0, -1048504, 6, 0, -1048503, 3, 0, -1048502, 3, 0, -1048501, 3, 0, -1048500, 3, 0, -1048499, 3, 0, -1048498, 6, 0, -983010, 6, 0, -983009, 6, 0, -983008, 6, 0, -983007, 6, 0, -983006, 6, 0, -983005, 6, 0, -983004, 6, 0, -983003, 6, 0, -983002, 6, 0, -983001, 6, 0, -983000, 1, 0, -982999, 1, 0, -982998, 1, 0, -982997, 1, 0, -982996, 1, 0, -982995, 1, 0, -982994, 1, 0, -982993, 1, 0, -982992, 6, 0, -982986, 6, 0, -982985, 1, 0, -982984, 1, 0, -982983, 1, 0, -982982, 1, 0, -982981, 1, 0, -982980, 1, 0, -982979, 1, 0, -982978, 1, 0, -982977, 1, 0, -982976, 1, 0, -982975, 1, 0, -982974, 1, 0, -982973, 1, 0, -982972, 1, 0, -982971, 1, 0, -982970, 1, 0, -982969, 1, 0, -982968, 3, 0, -982967, 3, 0, -982966, 3, 0, -982965, 3, 0, -982964, 3, 0, -982963, 3, 0, -982962, 6, 0, -917465, 6, 0, -917464, 1, 0, -917463, 1, 0, -917462, 1, 0, -917461, 1, 0, -917460, 1, 0, -917459, 1, 0, -917458, 1, 0, -917457, 1, 0, -917456, 6, 0, -917450, 6, 0, -917449, 1, 0, -917448, 1, 0, -917447, 1, 0, -917446, 1, 0, -917445, 1, 0, -917444, 1, 0, -917443, 1, 0, -917442, 1, 0, -917441, 1, 0, -917440, 1, 0, -917439, 1, 0, -917438, 1, 0, -917437, 1, 0, -917436, 1, 0, -917435, 1, 0, -917434, 1, 0, -917433, 1, 0, -917432, 3, 0, -917431, 3, 0, -917430, 3, 0, -917429, 3, 0, -917428, 3, 0, -917427, 3, 0, -917426, 6, 0, -851929, 6, 0, -851928, 1, 0, -851927, 1, 0, -851926, 1, 0, -851925, 1, 0, -851924, 1, 0, -851923, 1, 0, -851922, 1, 0, -851921, 1, 0, -851920, 6, 0, -851919, 6, 0, -851918, 6, 0, -851917, 6, 0, -851916, 6, 0, -851915, 6, 0, -851914, 6, 0, -851913, 1, 0, -851912, 1, 0, -851911, 1, 0, -851910, 1, 0, -851909, 1, 0, -851908, 1, 0, -851907, 1, 0, -851906, 1, 0, -851905, 1, 0, -851904, 1, 0, -851903, 1, 0, -851902, 1, 0, -851901, 1, 0, -851900, 1, 0, -851899, 1, 0, -851898, 1, 0, -851897, 1, 0, -851896, 3, 0, -851895, 3, 0, -851894, 3, 0, -851893, 3, 0, -851892, 3, 0, -851891, 3, 0, -851890, 6, 0, -851888, 6, 0, -851887, 6, 0, -851886, 6, 0, -851885, 6, 0, -851884, 6, 0, -851883, 6, 0, -851882, 6, 0, -851881, 6, 0, -851880, 6, 0, -851879, 6, 0, -851878, 6, 0, -851877, 6, 0, -851876, 6, 0, -851875, 6, 0, -851874, 6, 0, -851873, 6, 0, -851872, 6, 0, -851871, 6, 0, -851870, 6, 0, -851869, 6, 0, -851868, 6, 0, -851867, 6, 0, -851866, 6, 0, -786393, 6, 0, -786392, 1, 0, -786391, 1, 0, -786390, 1, 0, -786389, 1, 0, -786388, 1, 0, -786387, 1, 0, -786386, 1, 0, -786385, 1, 0, -786384, 1, 0, -786383, 1, 0, -786382, 1, 0, -786381, 1, 0, -786380, 1, 0, -786379, 1, 0, -786378, 1, 0, -786377, 1, 0, -786376, 1, 0, -786375, 1, 0, -786374, 1, 0, -786373, 1, 0, -786372, 1, 0, -786371, 1, 0, -786370, 1, 0, -786369, 1, 0, -786368, 6, 0, -786367, 6, 0, -786366, 6, 0, -786365, 6, 0, -786364, 1, 0, -786363, 1, 0, -786362, 1, 0, -786361, 1, 0, -786360, 6, 0, -786359, 6, 0, -786358, 6, 0, -786357, 6, 0, -786356, 6, 0, -786355, 6, 0, -786354, 6, 0, -786352, 6, 0, -786351, 3, 0, -786350, 3, 0, -786349, 3, 0, -786348, 3, 0, -786347, 3, 0, -786346, 3, 0, -786345, 3, 0, -786344, 3, 0, -786343, 3, 0, -786342, 4, 0, -786341, 4, 0, -786340, 4, 0, -786339, 4, 0, -786338, 4, 0, -786337, 4, 0, -786336, 4, 0, -786335, 4, 0, -786334, 4, 0, -786333, 4, 0, -786332, 4, 0, -786331, 4, 0, -786330, 6, 0, -720857, 6, 0, -720856, 1, 0, -720855, 1, 0, -720854, 1, 0, -720853, 1, 0, -720852, 1, 0, -720851, 1, 0, -720850, 1, 0, -720849, 1, 0, -720848, 1, 0, -720847, 1, 0, -720846, 1, 0, -720845, 1, 0, -720844, 1, 0, -720843, 1, 0, -720842, 1, 0, -720841, 1, 0, -720840, 1, 0, -720839, 1, 0, -720838, 1, 0, -720837, 1, 0, -720836, 1, 0, -720835, 1, 0, -720834, 1, 0, -720833, 1, 0, -720832, 6, 0, -720829, 6, 0, -720828, 1, 0, -720827, 1, 0, -720826, 1, 0, -720825, 1, 0, -720824, 6, 0, -720816, 6, 0, -720815, 3, 0, -720814, 3, 0, -720813, 3, 0, -720812, 3, 0, -720811, 3, 0, -720810, 3, 0, -720809, 3, 0, -720808, 3, 0, -720807, 3, 0, -720806, 4, 0, -720805, 4, 0, -720804, 4, 0, -720803, 4, 0, -720802, 4, 0, -720801, 4, 0, -720800, 4, 0, -720799, 4, 0, -720798, 4, 0, -720797, 4, 0, -720796, 4, 0, -720795, 4, 0, -720794, 6, 0, -655321, 6, 0, -655320, 1, 0, -655319, 1, 0, -655318, 1, 0, -655317, 6, 0, -655316, 6, 0, -655315, 6, 0, -655314, 6, 0, -655313, 1, 0, -655312, 1, 0, -655311, 1, 0, -655310, 1, 0, -655309, 1, 0, -655308, 1, 0, -655307, 1, 0, -655306, 1, 0, -655305, 1, 0, -655304, 1, 0, -655303, 1, 0, -655302, 1, 0, -655301, 1, 0, -655300, 1, 0, -655299, 1, 0, -655298, 1, 0, -655297, 1, 0, -655296, 6, 0, -655293, 6, 0, -655292, 1, 0, -655291, 1, 0, -655290, 1, 0, -655289, 1, 0, -655288, 6, 0, -655280, 6, 0, -655279, 3, 0, -655278, 3, 0, -655277, 3, 0, -655276, 3, 0, -655275, 3, 0, -655274, 3, 0, -655273, 3, 0, -655272, 3, 0, -655271, 3, 0, -655270, 4, 0, -655269, 4, 0, -655268, 4, 0, -655267, 4, 0, -655266, 4, 0, -655265, 4, 0, -655264, 4, 0, -655263, 4, 0, -655262, 4, 0, -655261, 4, 0, -655260, 4, 0, -655259, 4, 0, -655258, 6, 0, -589785, 6, 0, -589784, 1, 0, -589783, 1, 0, -589782, 1, 0, -589781, 6, 0, -589778, 6, 0, -589777, 1, 0, -589776, 1, 0, -589775, 1, 0, -589774, 1, 0, -589773, 1, 0, -589772, 1, 0, -589771, 1, 0, -589770, 1, 0, -589769, 1, 0, -589768, 1, 0, -589767, 1, 0, -589766, 1, 0, -589765, 1, 0, -589764, 1, 0, -589763, 1, 0, -589762, 1, 0, -589761, 1, 0, -589760, 6, 0, -589759, 6, 0, -589758, 6, 0, -589757, 6, 0, -589756, 1, 0, -589755, 1, 0, -589754, 1, 0, -589753, 1, 0, -589752, 6, 0, -589744, 6, 0, -589743, 3, 0, -589742, 3, 0, -589741, 3, 0, -589740, 6, 0, -589739, 6, 0, -589738, 6, 0, -589737, 6, 0, -589736, 6, 0, -589735, 6, 0, -589734, 6, 0, -589733, 4, 0, -589732, 4, 0, -589731, 4, 0, -589730, 4, 0, -589729, 4, 0, -589728, 4, 0, -589727, 4, 0, -589726, 0, 0, -589725, 1610612736, 0, -589724, 4, 0, -589723, 4, 0, -589722, 6, 0, -524249, 6, 0, -524248, 1, 0, -524247, 1, 0, -524246, 1, 0, -524245, 6, 0, -524242, 6, 0, -524241, 1, 0, -524240, 1, 0, -524239, 1, 0, -524238, 1, 0, -524237, 1, 0, -524236, 6, 0, -524235, 6, 0, -524234, 6, 0, -524233, 6, 0, -524232, 6, 0, -524231, 6, 0, -524230, 6, 0, -524229, 6, 0, -524228, 6, 0, -524227, 6, 0, -524226, 6, 0, -524225, 6, 0, -524224, 1, 0, -524223, 1, 0, -524222, 1, 0, -524221, 1, 0, -524220, 1, 0, -524219, 1, 0, -524218, 1, 0, -524217, 1, 0, -524216, 6, 0, -524208, 6, 0, -524207, 3, 0, -524206, 3, 0, -524205, 3, 0, -524204, 6, 0, -524198, 6, 0, -524197, 4, 0, -524196, 4, 0, -524195, 4, 0, -524194, 4, 0, -524193, 4, 0, -524192, 4, 0, -524191, 4, 0, -524190, 0, 0, -524189, 1610612736, 0, -524188, 4, 0, -524187, 4, 0, -524186, 6, 0, -458713, 6, 0, -458712, 1, 0, -458711, 1, 0, -458710, 1, 0, -458709, 6, 0, -458706, 6, 0, -458705, 1, 0, -458704, 1, 0, -458703, 1, 0, -458702, 1, 0, -458701, 1, 0, -458700, 6, 0, -458689, 6, 0, -458688, 1, 0, -458687, 1, 0, -458686, 1, 0, -458685, 1, 0, -458684, 1, 0, -458683, 1, 0, -458682, 1, 0, -458681, 1, 0, -458680, 6, 0, -458672, 6, 0, -458671, 3, 0, -458670, 3, 0, -458669, 3, 0, -458668, 6, 0, -458662, 6, 0, -458661, 4, 0, -458660, 4, 0, -458659, 4, 0, -458658, 4, 0, -458657, 4, 0, -458656, 4, 0, -458655, 4, 0, -458654, 0, 0, -458653, 1610612736, 0, -458652, 4, 0, -458651, 4, 0, -458650, 6, 0, -393201, 6, 0, -393200, 6, 0, -393199, 6, 0, -393198, 6, 0, -393197, 6, 0, -393196, 6, 0, -393195, 6, 0, -393194, 6, 0, -393193, 6, 0, -393192, 6, 0, -393191, 6, 0, -393190, 6, 0, -393189, 6, 0, -393188, 6, 0, -393187, 6, 0, -393186, 6, 0, -393185, 6, 0, -393184, 6, 0, -393183, 6, 0, -393182, 6, 0, -393177, 6, 0, -393176, 1, 0, -393175, 1, 0, -393174, 1, 0, -393173, 6, 0, -393170, 6, 0, -393169, 1, 0, -393168, 1, 0, -393167, 1, 0, -393166, 1, 0, -393165, 1, 0, -393164, 6, 0, -393153, 6, 0, -393152, 1, 0, -393151, 1, 0, -393150, 1, 0, -393149, 1, 0, -393148, 1, 0, -393147, 1, 0, -393146, 1, 0, -393145, 1, 0, -393144, 6, 0, -393136, 6, 0, -393135, 3, 0, -393134, 3, 0, -393133, 3, 0, -393132, 6, 0, -393126, 6, 0, -393125, 4, 0, -393124, 4, 0, -393123, 4, 0, -393122, 4, 0, -393121, 4, 0, -393120, 4, 0, -393119, 4, 0, -393118, 0, 0, -393117, 1610612736, 0, -393116, 4, 0, -393115, 4, 0, -393114, 6, 0, -327665, 6, 0, -327664, 3, 0, -327663, 3, 0, -327662, 3, 0, -327661, 3, 0, -327660, 3, 0, -327659, 3, 0, -327658, 3, 0, -327657, 3, 0, -327656, 3, 0, -327655, 3, 0, -327654, 3, 0, -327653, 3, 0, -327652, 3, 0, -327651, 3, 0, -327650, 3, 0, -327649, 3, 0, -327648, 3, 0, -327647, 3, 0, -327646, 6, 0, -327641, 6, 0, -327640, 1, 0, -327639, 1, 0, -327638, 1, 0, -327637, 6, 0, -327634, 6, 0, -327633, 1, 0, -327632, 1, 0, -327631, 1, 0, -327630, 1, 0, -327629, 1, 0, -327628, 6, 0, -327627, 6, 0, -327626, 6, 0, -327625, 6, 0, -327624, 6, 0, -327623, 6, 0, -327622, 6, 0, -327621, 6, 0, -327620, 6, 0, -327619, 6, 0, -327618, 6, 0, -327617, 6, 0, -327616, 1, 0, -327615, 1, 0, -327614, 1, 0, -327613, 1, 0, -327612, 1, 0, -327611, 1, 0, -327610, 1, 0, -327609, 1, 0, -327608, 6, 0, -327600, 6, 0, -327599, 3, 0, -327598, 3, 0, -327597, 3, 0, -327596, 6, 0, -327593, 6, 0, -327592, 6, 0, -327591, 6, 0, -327590, 6, 0, -327589, 4, 0, -327588, 4, 0, -327587, 4, 0, -327586, 4, 0, -327585, 4, 0, -327584, 4, 0, -327583, 4, 0, -327582, 0, 0, -327581, 1610612736, 0, -327580, 4, 0, -327579, 4, 0, -327578, 6, 0, -262129, 6, 0, -262128, 3, 0, -262127, 3, 0, -262126, 3, 0, -262125, 3, 0, -262124, 3, 0, -262123, 3, 0, -262122, 3, 0, -262121, 3, 0, -262120, 3, 0, -262119, 3, 0, -262118, 3, 0, -262117, 3, 0, -262116, 3, 0, -262115, 3, 0, -262114, 3, 0, -262113, 3, 0, -262112, 3, 0, -262111, 3, 0, -262110, 6, 0, -262105, 6, 0, -262104, 1, 0, -262103, 1, 0, -262102, 1, 0, -262101, 6, 0, -262100, 6, 0, -262099, 6, 0, -262098, 6, 0, -262097, 1, 0, -262096, 1, 0, -262095, 1, 0, -262094, 1, 0, -262093, 1, 0, -262092, 1, 0, -262091, 1, 0, -262090, 1, 0, -262089, 1, 0, -262088, 1, 0, -262087, 1, 0, -262086, 1, 0, -262085, 1, 0, -262084, 1, 0, -262083, 1, 0, -262082, 1, 0, -262081, 1, 0, -262080, 1, 0, -262079, 1, 0, -262078, 1, 0, -262077, 1, 0, -262076, 1, 0, -262075, 1, 0, -262074, 1, 0, -262073, 1, 0, -262072, 6, 0, -262064, 6, 0, -262063, 3, 0, -262062, 3, 0, -262061, 3, 0, -262060, 6, 0, -262057, 6, 0, -262056, 4, 0, -262055, 4, 0, -262054, 4, 0, -262053, 4, 0, -262052, 4, 0, -262051, 4, 0, -262050, 4, 0, -262049, 4, 0, -262048, 4, 0, -262047, 4, 0, -262046, 0, 0, -262045, 1610612736, 0, -262044, 4, 0, -262043, 4, 0, -262042, 6, 0, -196593, 6, 0, -196592, 3, 0, -196591, 3, 0, -196590, 3, 0, -196589, 3, 0, -196588, 3, 0, -196587, 3, 0, -196586, 3, 0, -196585, 3, 0, -196584, 3, 0, -196583, 3, 0, -196582, 3, 0, -196581, 3, 0, -196580, 3, 0, -196579, 3, 0, -196578, 3, 0, -196577, 3, 0, -196576, 3, 0, -196575, 3, 0, -196574, 6, 0, -196569, 6, 0, -196568, 1, 0, -196567, 1, 0, -196566, 1, 0, -196565, 1, 0, -196564, 1, 0, -196563, 1, 0, -196562, 1, 0, -196561, 1, 0, -196560, 1, 0, -196559, 1, 0, -196558, 1, 0, -196557, 1, 0, -196556, 1, 0, -196555, 1, 0, -196554, 1, 0, -196553, 1, 0, -196552, 1, 0, -196551, 1, 0, -196550, 1, 0, -196549, 1, 0, -196548, 1, 0, -196547, 1, 0, -196546, 1, 0, -196545, 1, 0, -196544, 1, 0, -196543, 1, 0, -196542, 1, 0, -196541, 1, 0, -196540, 1, 0, -196539, 1, 0, -196538, 1, 0, -196537, 1, 0, -196536, 6, 0, -196528, 6, 0, -196527, 3, 0, -196526, 3, 0, -196525, 3, 0, -196524, 6, 0, -196521, 6, 0, -196520, 4, 0, -196519, 4, 0, -196518, 4, 0, -196517, 4, 0, -196516, 4, 0, -196515, 4, 0, -196514, 4, 0, -196513, 4, 0, -196512, 4, 0, -196511, 4, 0, -196510, 0, 0, -196509, 1610612736, 0, -196508, 4, 0, -196507, 4, 0, -196506, 6, 0, -131057, 6, 0, -131056, 3, 0, -131055, 3, 0, -131054, 3, 0, -131053, 3, 0, -131052, 3, 0, -131051, 3, 0, -131050, 3, 0, -131049, 3, 0, -131048, 3, 0, -131047, 3, 0, -131046, 3, 0, -131045, 3, 0, -131044, 3, 0, -131043, 3, 0, -131042, 3, 0, -131041, 3, 0, -131040, 3, 0, -131039, 3, 0, -131038, 6, 0, -131033, 6, 0, -131032, 1, 0, -131031, 1, 0, -131030, 1, 0, -131029, 1, 0, -131028, 1, 0, -131027, 1, 0, -131026, 1, 0, -131025, 1, 0, -131024, 1, 0, -131023, 1, 0, -131022, 1, 0, -131021, 1, 0, -131020, 1, 0, -131019, 1, 0, -131018, 1, 0, -131017, 1, 0, -131016, 1, 0, -131015, 1, 0, -131014, 1, 0, -131013, 1, 0, -131012, 1, 0, -131011, 1, 0, -131010, 1, 0, -131009, 1, 0, -131008, 1, 0, -131007, 1, 0, -131006, 1, 0, -131005, 1, 0, -131004, 1, 0, -131003, 1, 0, -131002, 1, 0, -131001, 1, 0, -131000, 6, 0, -130992, 6, 0, -130991, 3, 0, -130990, 3, 0, -130989, 3, 0, -130988, 6, 0, -130985, 6, 0, -130984, 4, 0, -130983, 4, 0, -130982, 4, 0, -130981, 4, 0, -130980, 4, 0, -130979, 4, 0, -130978, 4, 0, -130977, 4, 0, -130976, 4, 0, -130975, 4, 0, -130974, 0, 0, -130973, 1610612736, 0, -130972, 4, 0, -130971, 4, 0, -130970, 6, 0, -65521, 6, 0, -65520, 3, 0, -65519, 3, 0, -65518, 3, 0, -65517, 3, 0, -65516, 3, 0, -65515, 3, 0, -65514, 3, 0, -65513, 3, 0, -65512, 3, 0, -65511, 3, 0, -65510, 3, 0, -65509, 3, 0, -65508, 3, 0, -65507, 3, 0, -65506, 3, 0, -65505, 3, 0, -65504, 3, 0, -65503, 3, 0, -65502, 6, 0, -65497, 6, 0, -65496, 1, 0, -65495, 1, 0, -65494, 1, 0, -65493, 1, 0, -65492, 1, 0, -65491, 1, 0, -65490, 1, 0, -65489, 1, 0, -65488, 1, 0, -65487, 1, 0, -65486, 1, 0, -65485, 1, 0, -65484, 1, 0, -65483, 1, 0, -65482, 1, 0, -65481, 1, 0, -65480, 1, 0, -65479, 1, 0, -65478, 1, 0, -65477, 1, 0, -65476, 1, 0, -65475, 1, 0, -65474, 1, 0, -65473, 1, 0, -65472, 1, 0, -65471, 1, 0, -65470, 1, 0, -65469, 1, 0, -65468, 1, 0, -65467, 1, 0, -65466, 1, 0, -65465, 1, 0, -65464, 6, 0, -65456, 6, 0, -65455, 3, 0, -65454, 3, 0, -65453, 3, 0, -65452, 6, 0, -65449, 6, 0, -65448, 4, 0, -65447, 4, 0, -65446, 4, 0, -65445, 4, 0, -65444, 4, 0, -65443, 4, 0, -65442, 4, 0, -65441, 4, 0, -65440, 4, 0, -65439, 4, 0, -65438, 0, 0, -65437, 1610612736, 0, -65436, 4, 0, -65435, 4, 0, -65434, 6, 0, 0, 6, 0, 1, 6, 0, 2, 6, 0, 3, 6, 0, 4, 6, 0, 5, 6, 0, 6, 6, 0, 7, 6, 0, 8, 6, 0, 9, 6, 0, 10, 6, 0, 11, 6, 0, 12, 6, 0, 13, 6, 0, 14, 6, 0, 15, 6, 0, 16, 3, 0, 17, 3, 0, 18, 3, 0, 19, 3, 0, 20, 3, 0, 21, 3, 0, 22, 3, 0, 23, 3, 0, 24, 3, 0, 25, 3, 0, 26, 3, 0, 27, 3, 0, 28, 3, 0, 29, 3, 0, 30, 3, 0, 31, 3, 0, 32, 3, 0, 33, 3, 0, 34, 6, 0, 35, 6, 0, 36, 6, 0, 37, 6, 0, 38, 6, 0, 39, 6, 0, 40, 6, 0, 41, 6, 0, 42, 6, 0, 43, 6, 0, 44, 6, 0, 45, 1, 0, 46, 1, 0, 47, 1, 0, 48, 1, 0, 49, 6, 0, 50, 6, 0, 51, 6, 0, 52, 6, 0, 53, 6, 0, 54, 6, 0, 55, 6, 0, 56, 6, 0, 57, 6, 0, 58, 6, 0, 59, 6, 0, 60, 6, 0, 61, 6, 0, 62, 6, 0, 63, 6, 0, 64, 6, 0, 65, 6, 0, 66, 1, 0, 67, 1, 0, 68, 1, 0, 69, 1, 0, 70, 6, 0, 71, 6, 0, 72, 6, 0, 73, 6, 0, 74, 6, 0, 75, 6, 0, 76, 6, 0, 77, 6, 0, 78, 6, 0, 79, 6, 0, 80, 6, 0, 81, 3, 0, 82, 3, 0, 83, 3, 0, 84, 6, 0, 87, 6, 0, 88, 6, 0, 89, 6, 0, 90, 6, 0, 91, 6, 0, 92, 6, 0, 93, 6, 0, 94, 6, 0, 95, 6, 0, 96, 4, 0, 97, 4, 0, 98, 0, 0, 99, 1610612736, 0, 100, 4, 0, 101, 4, 0, 102, 6, 0, 103, 6, 0, 104, 6, 0, 105, 6, 0, 106, 6, 0, 107, 6, 0, 108, 6, 0, 109, 6, 0, 131071, 3, 0, 65536, 3, 0, 65537, 3, 0, 65538, 3, 0, 65539, 3, 0, 65540, 3, 0, 65541, 3, 0, 65542, 3, 0, 65543, 3, 0, 65544, 3, 0, 65545, 3, 0, 65546, 3, 0, 65547, 3, 0, 65548, 3, 0, 65549, 3, 0, 65550, 3, 0, 65551, 3, 0, 65552, 3, 0, 65553, 3, 0, 65554, 3, 0, 65555, 3, 0, 65556, 3, 0, 65557, 3, 0, 65558, 3, 0, 65559, 3, 0, 65560, 3, 0, 65561, 3, 0, 65562, 3, 0, 65563, 3, 0, 65564, 3, 0, 65565, 3, 0, 65566, 3, 0, 65567, 3, 0, 65568, 3, 0, 65569, 3, 0, 65570, 3, 0, 65571, 3, 0, 65572, 3, 0, 65573, 3, 0, 65574, 3, 0, 65575, 3, 0, 65576, 3, 0, 65577, 3, 0, 65578, 3, 0, 65579, 3, 0, 65580, 3, 0, 65581, 3, 0, 65582, 3, 0, 65583, 3, 0, 65584, 3, 0, 65585, 3, 0, 65586, 3, 0, 65587, 3, 0, 65588, 3, 0, 65589, 3, 0, 65590, 3, 0, 65591, 3, 0, 65592, 3, 0, 65593, 3, 0, 65594, 3, 0, 65595, 3, 0, 65596, 3, 0, 65597, 3, 0, 65598, 3, 0, 65599, 3, 0, 65600, 3, 0, 65601, 3, 0, 65602, 3, 0, 65603, 3, 0, 65604, 3, 0, 65605, 3, 0, 65606, 3, 0, 65607, 3, 0, 65608, 3, 0, 65609, 3, 0, 65610, 3, 0, 65611, 3, 0, 65612, 3, 0, 65613, 3, 0, 65614, 3, 0, 65615, 3, 0, 65616, 3, 0, 65617, 3, 0, 65618, 3, 0, 65619, 3, 0, 65620, 6, 0, 65631, 6, 0, 65632, 4, 0, 65633, 4, 0, 65634, 0, 0, 65635, 1610612736, 0, 65636, 4, 0, 65637, 4, 0, 65638, 4, 0, 65639, 4, 0, 65640, 4, 0, 65641, 4, 0, 65642, 4, 0, 65643, 4, 0, 65644, 4, 0, 65645, 4, 0, 65646, 4, 0, 196606, 3, 0, 196607, 3, 0, 131072, 3, 0, 131073, 3, 0, 131074, 3, 0, 131075, 3, 0, 131076, 3, 0, 131077, 3, 0, 131078, 3, 0, 131079, 3, 0, 131080, 3, 0, 131081, 3, 0, 131082, 3, 0, 131083, 3, 0, 131084, 3, 0, 131085, 3, 0, 131086, 3, 0, 131087, 3, 0, 131088, 3, 0, 131089, 3, 0, 131090, 3, 0, 131091, 3, 0, 131092, 3, 0, 131093, 3, 0, 131094, 3, 0, 131095, 3, 0, 131096, 3, 0, 131097, 3, 0, 131098, 3, 0, 131099, 3, 0, 131100, 3, 0, 131101, 3, 0, 131102, 3, 0, 131103, 3, 0, 131104, 3, 0, 131105, 3, 0, 131106, 3, 0, 131107, 3, 0, 131108, 3, 0, 131109, 3, 0, 131110, 3, 0, 131111, 3, 0, 131112, 3, 0, 131113, 3, 0, 131114, 3, 0, 131115, 3, 0, 131116, 3, 0, 131117, 3, 0, 131118, 3, 0, 131119, 3, 0, 131120, 3, 0, 131121, 3, 0, 131122, 3, 0, 131123, 3, 0, 131124, 3, 0, 131125, 3, 0, 131126, 3, 0, 131127, 3, 0, 131128, 3, 0, 131129, 3, 0, 131130, 3, 0, 131131, 3, 0, 131132, 3, 0, 131133, 3, 0, 131134, 3, 0, 131135, 3, 0, 131136, 3, 0, 131137, 3, 0, 131138, 3, 0, 131139, 3, 0, 131140, 3, 0, 131141, 3, 0, 131142, 3, 0, 131143, 3, 0, 131144, 3, 0, 131145, 3, 0, 131146, 3, 0, 131147, 3, 0, 131148, 3, 0, 131149, 3, 0, 131150, 3, 0, 131151, 3, 0, 131152, 3, 0, 131153, 3, 0, 131154, 3, 0, 131155, 3, 0, 131156, 6, 0, 131167, 6, 0, 131168, 4, 0, 131169, 4, 0, 131170, 0, 0, 131171, 1610612736, 0, 131172, 4, 0, 131173, 4, 0, 131174, 4, 0, 131175, 4, 0, 131176, 4, 0, 131177, 4, 0, 131178, 4, 0, 131179, 4, 0, 131180, 4, 0, 131181, 4, 0, 131182, 4, 0, 131183, 4, 0, 262142, 3, 0, 262143, 3, 0, 196608, 3, 0, 196609, 3, 0, 196610, 3, 0, 196611, 3, 0, 196612, 3, 0, 196613, 3, 0, 196614, 3, 0, 196615, 3, 0, 196616, 3, 0, 196617, 3, 0, 196618, 3, 0, 196619, 3, 0, 196620, 3, 0, 196621, 3, 0, 196622, 3, 0, 196623, 3, 0, 196624, 3, 0, 196625, 3, 0, 196626, 3, 0, 196627, 3, 0, 196628, 3, 0, 196629, 3, 0, 196630, 3, 0, 196631, 3, 0, 196632, 3, 0, 196633, 3, 0, 196634, 3, 0, 196635, 3, 0, 196636, 3, 0, 196637, 3, 0, 196638, 3, 0, 196639, 3, 0, 196640, 3, 0, 196641, 3, 0, 196642, 3, 0, 196643, 3, 0, 196644, 3, 0, 196645, 3, 0, 196646, 3, 0, 196647, 3, 0, 196648, 3, 0, 196649, 3, 0, 196650, 3, 0, 196651, 3, 0, 196652, 3, 0, 196653, 3, 0, 196654, 3, 0, 196655, 3, 0, 196656, 3, 0, 196657, 3, 0, 196658, 3, 0, 196659, 3, 0, 196660, 3, 0, 196661, 3, 0, 196662, 3, 0, 196663, 3, 0, 196664, 3, 0, 196665, 3, 0, 196666, 3, 0, 196667, 3, 0, 196668, 3, 0, 196669, 3, 0, 196670, 3, 0, 196671, 3, 0, 196672, 3, 0, 196673, 3, 0, 196674, 3, 0, 196675, 3, 0, 196676, 3, 0, 196677, 3, 0, 196678, 3, 0, 196679, 3, 0, 196680, 3, 0, 196681, 3, 0, 196682, 3, 0, 196683, 3, 0, 196684, 3, 0, 196685, 3, 0, 196686, 3, 0, 196687, 3, 0, 196688, 3, 0, 196689, 3, 0, 196690, 3, 0, 196691, 3, 0, 196692, 6, 0, 196703, 6, 0, 196704, 4, 0, 196705, 4, 0, 196706, 0, 0, 196707, 1610612736, 0, 196708, 4, 0, 196709, 4, 0, 196710, 4, 0, 196711, 4, 0, 196712, 4, 0, 196713, 4, 0, 196714, 4, 0, 196715, 4, 0, 196716, 4, 0, 196717, 4, 0, 196718, 4, 0, 196719, 4, 0, 327679, 3, 0, 262144, 3, 0, 262145, 3, 0, 262146, 3, 0, 262147, 3, 0, 262148, 3, 0, 262149, 3, 0, 262150, 3, 0, 262151, 3, 0, 262152, 3, 0, 262153, 3, 0, 262154, 3, 0, 262155, 3, 0, 262156, 3, 0, 262157, 3, 0, 262158, 3, 0, 262159, 3, 0, 262160, 3, 0, 262161, 3, 0, 262162, 3, 0, 262163, 3, 0, 262164, 3, 0, 262165, 3, 0, 262166, 3, 0, 262167, 3, 0, 262168, 3, 0, 262169, 3, 0, 262170, 3, 0, 262171, 3, 0, 262172, 3, 0, 262173, 3, 0, 262174, 3, 0, 262175, 3, 0, 262176, 3, 0, 262177, 3, 0, 262178, 3, 0, 262179, 3, 0, 262180, 3, 0, 262181, 3, 0, 262182, 3, 0, 262183, 3, 0, 262184, 3, 0, 262185, 3, 0, 262186, 3, 0, 262187, 3, 0, 262188, 3, 0, 262189, 3, 0, 262190, 3, 0, 262191, 3, 0, 262192, 3, 0, 262193, 3, 0, 262194, 3, 0, 262195, 3, 0, 262196, 3, 0, 262197, 3, 0, 262198, 3, 0, 262199, 3, 0, 262200, 3, 0, 262201, 3, 0, 262202, 3, 0, 262203, 3, 0, 262204, 3, 0, 262205, 3, 0, 262206, 3, 0, 262207, 3, 0, 262208, 3, 0, 262209, 3, 0, 262210, 3, 0, 262211, 3, 0, 262212, 3, 0, 262213, 3, 0, 262214, 3, 0, 262215, 3, 0, 262216, 3, 0, 262217, 3, 0, 262218, 3, 0, 262219, 3, 0, 262220, 3, 0, 262221, 3, 0, 262222, 3, 0, 262223, 3, 0, 262224, 3, 0, 262225, 3, 0, 262226, 3, 0, 262227, 3, 0, 262228, 6, 0, 262239, 6, 0, 262240, 4, 0, 262241, 4, 0, 262242, 0, 0, 262243, 1610612736, 0, 262244, 4, 0, 262245, 4, 0, 262246, 4, 0, 262247, 4, 0, 262248, 4, 0, 262249, 4, 0, 262250, 4, 0, 262251, 4, 0, 262252, 4, 0, 262253, 4, 0, 262254, 4, 0, 327680, 6, 0, 327681, 6, 0, 327682, 6, 0, 327683, 6, 0, 327684, 6, 0, 327685, 6, 0, 327686, 6, 0, 327687, 6, 0, 327688, 6, 0, 327689, 6, 0, 327690, 2, 0, 327691, 2, 0, 327692, 2, 0, 327693, 2, 0, 327694, 6, 0, 327695, 6, 0, 327696, 6, 0, 327697, 6, 0, 327698, 6, 0, 327699, 6, 0, 327700, 6, 0, 327701, 6, 0, 327702, 6, 0, 327703, 6, 0, 327704, 6, 0, 327705, 6, 0, 327706, 6, 0, 327707, 6, 0, 327708, 6, 0, 327709, 6, 0, 327710, 6, 0, 327711, 6, 0, 327712, 6, 0, 327713, 6, 0, 327714, 6, 0, 327715, 6, 0, 327716, 6, 0, 327717, 6, 0, 327718, 6, 0, 327719, 6, 0, 327720, 6, 0, 327721, 6, 0, 327722, 6, 0, 327723, 6, 0, 327724, 6, 0, 327725, 6, 0, 327726, 4, 0, 327727, 4, 0, 327728, 4, 0, 327729, 4, 0, 327730, 6, 0, 327731, 6, 0, 327732, 6, 0, 327733, 6, 0, 327734, 6, 0, 327735, 6, 0, 327736, 6, 0, 327737, 6, 0, 327738, 6, 0, 327739, 6, 0, 327740, 6, 0, 327741, 6, 0, 327742, 6, 0, 327743, 6, 0, 327744, 6, 0, 327745, 4, 0, 327746, 4, 0, 327747, 4, 0, 327748, 4, 0, 327749, 4, 0, 327750, 4, 0, 327751, 4, 0, 327752, 4, 0, 327753, 4, 0, 327754, 4, 0, 327755, 6, 0, 327756, 6, 0, 327757, 6, 0, 327758, 6, 0, 327759, 6, 0, 327760, 6, 0, 327761, 3, 0, 327762, 3, 0, 327763, 3, 0, 327764, 6, 0, 327767, 6, 0, 327768, 6, 0, 327769, 6, 0, 327770, 6, 0, 327771, 6, 0, 327772, 6, 0, 327773, 6, 0, 327774, 6, 0, 327775, 6, 0, 327776, 4, 0, 327777, 4, 0, 327778, 0, 0, 327779, 1610612736, 0, 327780, 4, 0, 327781, 4, 0, 327782, 6, 0, 327783, 6, 0, 327784, 6, 0, 327785, 6, 0, 327786, 6, 0, 327787, 6, 0, 327788, 6, 0, 327789, 6, 0, 393225, 6, 0, 393226, 2, 0, 393227, 2, 0, 393228, 2, 0, 393229, 2, 0, 393230, 2, 0, 393231, 2, 0, 393232, 2, 0, 393233, 2, 0, 393234, 2, 0, 393235, 2, 0, 393236, 2, 0, 393237, 2, 0, 393238, 2, 0, 393239, 2, 0, 393240, 2, 0, 393241, 2, 0, 393242, 2, 0, 393243, 6, 0, 393244, 3, 0, 393245, 3, 0, 393246, 3, 0, 393247, 3, 0, 393248, 3, 0, 393249, 3, 0, 393250, 3, 0, 393251, 3, 0, 393252, 3, 0, 393253, 3, 0, 393254, 3, 0, 393255, 3, 0, 393256, 6, 0, 393257, 4, 0, 393258, 4, 0, 393259, 4, 0, 393260, 4, 0, 393261, 4, 0, 393262, 4, 0, 393263, 4, 0, 393264, 4, 0, 393265, 4, 0, 393266, 4, 0, 393267, 4, 0, 393268, 4, 0, 393269, 4, 0, 393270, 4, 0, 393271, 6, 0, 393280, 6, 0, 393281, 4, 0, 393282, 4, 0, 393283, 4, 0, 393284, 4, 0, 393285, 4, 0, 393286, 4, 0, 393287, 4, 0, 393288, 4, 0, 393289, 4, 0, 393290, 4, 0, 393291, 6, 0, 393296, 6, 0, 393297, 3, 0, 393298, 3, 0, 393299, 3, 0, 393300, 6, 0, 393303, 6, 0, 393304, 4, 0, 393305, 4, 0, 393306, 4, 0, 393307, 4, 0, 393308, 4, 0, 393309, 4, 0, 393310, 4, 0, 393311, 4, 0, 393312, 4, 0, 393313, 4, 0, 393314, 0, 0, 393315, 1610612736, 0, 393316, 4, 0, 393317, 4, 0, 393318, 6, 0, 458761, 6, 0, 458762, 3, 0, 458763, 2, 0, 458764, 2, 0, 458765, 2, 0, 458766, 2, 0, 458767, 2, 0, 458768, 2, 0, 458769, 2, 0, 458770, 2, 0, 458771, 2, 0, 458772, 2, 0, 458773, 2, 0, 458774, 2, 0, 458775, 2, 0, 458776, 2, 0, 458777, 2, 0, 458778, 2, 0, 458779, 6, 0, 458780, 3, 0, 458781, 3, 0, 458782, 3, 0, 458783, 3, 0, 458784, 3, 0, 458785, 3, 0, 458786, 3, 0, 458787, 3, 0, 458788, 3, 0, 458789, 3, 0, 458790, 3, 0, 458791, 3, 0, 458792, 6, 0, 458793, 4, 0, 458794, 4, 0, 458795, 4, 0, 458796, 4, 0, 458797, 4, 0, 458798, 4, 0, 458799, 4, 0, 458800, 4, 0, 458801, 4, 0, 458802, 4, 0, 458803, 4, 0, 458804, 4, 0, 458805, 4, 0, 458806, 4, 0, 458807, 6, 0, 458816, 6, 0, 458817, 4, 0, 458818, 4, 0, 458819, 4, 0, 458820, 4, 0, 458821, 4, 0, 458822, 4, 0, 458823, 4, 0, 458824, 4, 0, 458825, 4, 0, 458826, 4, 0, 458827, 6, 0, 458832, 6, 0, 458833, 3, 0, 458834, 3, 0, 458835, 3, 0, 458836, 6, 0, 458839, 6, 0, 458840, 4, 0, 458841, 4, 0, 458842, 4, 0, 458843, 4, 0, 458844, 4, 0, 458845, 4, 0, 458846, 4, 0, 458847, 4, 0, 458848, 4, 0, 458849, 4, 0, 458850, 0, 0, 458851, 1610612736, 0, 458852, 4, 0, 458853, 4, 0, 458854, 6, 0, 524297, 6, 0, 524298, 2, 0, 524299, 2, 0, 524300, 2, 0, 524301, 2, 0, 524302, 2, 0, 524303, 2, 0, 524304, 2, 0, 524305, 2, 0, 524306, 2, 0, 524307, 2, 0, 524308, 2, 0, 524309, 2, 0, 524310, 2, 0, 524311, 2, 0, 524312, 2, 0, 524313, 2, 0, 524314, 2, 0, 524315, 6, 0, 524316, 3, 0, 524317, 3, 0, 524318, 3, 0, 524319, 3, 0, 524320, 3, 0, 524321, 3, 0, 524322, 3, 0, 524323, 3, 0, 524324, 3, 0, 524325, 3, 0, 524326, 3, 0, 524327, 3, 0, 524328, 6, 0, 524329, 4, 0, 524330, 4, 0, 524331, 4, 0, 524332, 4, 0, 524333, 4, 0, 524334, 4, 0, 524335, 4, 0, 524336, 4, 0, 524337, 4, 0, 524338, 4, 0, 524339, 4, 0, 524340, 4, 0, 524341, 4, 0, 524342, 4, 0, 524343, 6, 0, 524352, 6, 0, 524353, 4, 0, 524354, 4, 0, 524355, 4, 0, 524356, 4, 0, 524357, 4, 0, 524358, 4, 0, 524359, 4, 0, 524360, 4, 0, 524361, 4, 0, 524362, 4, 0, 524363, 6, 0, 524368, 6, 0, 524369, 3, 0, 524370, 3, 0, 524371, 3, 0, 524372, 6, 0, 524375, 6, 0, 524376, 4, 0, 524377, 4, 0, 524378, 4, 0, 524379, 4, 0, 524380, 4, 0, 524381, 4, 0, 524382, 4, 0, 524383, 4, 0, 524384, 4, 0, 524385, 4, 0, 524386, 0, 0, 524387, 1610612736, 0, 524388, 4, 0, 524389, 4, 0, 524390, 6, 0, 589833, 6, 0, 589834, 2, 0, 589835, 2, 0, 589836, 2, 0, 589837, 2, 0, 589838, 2, 0, 589839, 2, 0, 589840, 2, 0, 589841, 2, 0, 589842, 2, 0, 589843, 2, 0, 589844, 2, 0, 589845, 2, 0, 589846, 2, 0, 589847, 2, 0, 589848, 2, 0, 589849, 2, 0, 589850, 2, 0, 589851, 6, 0, 589852, 3, 0, 589853, 3, 0, 589854, 3, 0, 589855, 3, 0, 589856, 3, 0, 589857, 3, 0, 589858, 3, 0, 589859, 3, 0, 589860, 3, 0, 589861, 3, 0, 589862, 3, 0, 589863, 3, 0, 589864, 6, 0, 589865, 4, 0, 589866, 4, 0, 589867, 4, 0, 589868, 4, 0, 589869, 4, 0, 589870, 4, 0, 589871, 4, 0, 589872, 4, 0, 589873, 4, 0, 589874, 4, 0, 589875, 4, 0, 589876, 4, 0, 589877, 4, 0, 589878, 4, 0, 589879, 6, 0, 589888, 6, 0, 589889, 4, 0, 589890, 4, 0, 589891, 4, 0, 589892, 4, 0, 589893, 4, 0, 589894, 4, 0, 589895, 4, 0, 589896, 4, 0, 589897, 4, 0, 589898, 4, 0, 589899, 6, 0, 589904, 6, 0, 589905, 3, 0, 589906, 3, 0, 589907, 3, 0, 589908, 6, 0, 589911, 6, 0, 589912, 4, 0, 589913, 4, 0, 589914, 4, 0, 589915, 4, 0, 589916, 4, 0, 589917, 4, 0, 589918, 4, 0, 589919, 4, 0, 589920, 4, 0, 589921, 4, 0, 589922, 0, 0, 589923, 1610612736, 0, 589924, 4, 0, 589925, 4, 0, 589926, 6, 0, 655369, 6, 0, 655370, 2, 0, 655371, 2, 0, 655372, 2, 0, 655373, 2, 0, 655374, 2, 0, 655375, 2, 0, 655376, 2, 0, 655377, 2, 0, 655378, 2, 0, 655379, 2, 0, 655380, 2, 0, 655381, 2, 0, 655382, 2, 0, 655383, 2, 0, 655384, 2, 0, 655385, 2, 0, 655386, 2, 0, 655387, 6, 0, 655388, 3, 0, 655389, 3, 0, 655390, 3, 0, 655391, 3, 0, 655392, 3, 0, 655393, 3, 0, 655394, 3, 0, 655395, 3, 0, 655396, 3, 0, 655397, 3, 0, 655398, 3, 0, 655399, 3, 0, 655400, 6, 0, 655401, 4, 0, 655402, 4, 0, 655403, 4, 0, 655404, 4, 0, 655405, 4, 0, 655406, 4, 0, 655407, 4, 0, 655408, 4, 0, 655409, 4, 0, 655410, 4, 0, 655411, 4, 0, 655412, 4, 0, 655413, 4, 0, 655414, 4, 0, 655415, 6, 0, 655424, 6, 0, 655425, 4, 0, 655426, 4, 0, 655427, 4, 0, 655428, 4, 0, 655429, 4, 0, 655430, 4, 0, 655431, 4, 0, 655432, 4, 0, 655433, 4, 0, 655434, 4, 0, 655435, 6, 0, 655440, 6, 0, 655441, 3, 0, 655442, 3, 0, 655443, 3, 0, 655444, 6, 0, 655447, 6, 0, 655448, 6, 0, 655449, 6, 0, 655450, 6, 0, 655451, 4, 0, 655452, 4, 0, 655453, 4, 0, 655454, 4, 0, 655455, 4, 0, 655456, 4, 0, 655457, 4, 0, 655458, 0, 0, 655459, 1610612736, 0, 655460, 4, 0, 655461, 4, 0, 655462, 6, 0, 720905, 6, 0, 720906, 2, 0, 720907, 2, 0, 720908, 2, 0, 720909, 2, 0, 720910, 2, 0, 720911, 2, 0, 720912, 2, 0, 720913, 2, 0, 720914, 2, 0, 720915, 2, 0, 720916, 2, 0, 720917, 2, 0, 720918, 2, 0, 720919, 2, 0, 720920, 2, 0, 720921, 2, 0, 720922, 2, 0, 720923, 6, 0, 720924, 3, 0, 720925, 3, 0, 720926, 3, 0, 720927, 3, 0, 720928, 3, 0, 720929, 3, 0, 720930, 3, 0, 720931, 3, 0, 720932, 3, 0, 720933, 3, 0, 720934, 3, 0, 720935, 3, 0, 720936, 4, 0, 720937, 4, 0, 720938, 4, 0, 720939, 4, 0, 720940, 4, 0, 720941, 4, 0, 720942, 4, 0, 720943, 4, 0, 720944, 4, 0, 720945, 4, 0, 720946, 4, 0, 720947, 4, 0, 720948, 4, 0, 720949, 4, 0, 720950, 4, 0, 720951, 6, 0, 720960, 6, 0, 720961, 4, 0, 720962, 4, 0, 720963, 4, 0, 720964, 4, 0, 720965, 4, 0, 720966, 4, 0, 720967, 4, 0, 720968, 4, 0, 720969, 4, 0, 720970, 4, 0, 720971, 6, 0, 720976, 6, 0, 720977, 3, 0, 720978, 3, 0, 720979, 3, 0, 720980, 6, 0, 720986, 6, 0, 720987, 4, 0, 720988, 4, 0, 720989, 4, 0, 720990, 4, 0, 720991, 4, 0, 720992, 4, 0, 720993, 4, 0, 720994, 0, 0, 720995, 1610612736, 0, 720996, 4, 0, 720997, 4, 0, 720998, 6, 0, 786441, 6, 0, 786442, 2, 0, 786443, 2, 0, 786444, 2, 0, 786445, 2, 0, 786446, 2, 0, 786447, 2, 0, 786448, 2, 0, 786449, 2, 0, 786450, 2, 0, 786451, 2, 0, 786452, 2, 0, 786453, 2, 0, 786454, 2, 0, 786455, 2, 0, 786456, 2, 0, 786457, 2, 0, 786458, 2, 0, 786459, 6, 0, 786460, 3, 0, 786461, 3, 0, 786462, 3, 0, 786463, 3, 0, 786464, 3, 0, 786465, 3, 0, 786466, 3, 0, 786467, 3, 0, 786468, 3, 0, 786469, 3, 0, 786470, 3, 0, 786471, 3, 0, 786472, -1610612736, 0, 786473, -1610612736, 0, 786474, -1610612736, 0, 786475, -1610612736, 0, 786476, -1610612736, 0, 786477, -1610612736, 0, 786478, -1610612736, 0, 786479, -1610612736, 0, 786480, -1610612736, 0, 786481, -1610612736, 0, 786482, -1610612736, 0, 786483, -1610612736, 0, 786484, -1610612736, 0, 786485, -1610612736, 0, 786486, -1610612736, 0, 786487, 6, 0, 786496, 6, 0, 786497, 4, 0, 786498, 4, 0, 786499, 4, 0, 786500, 4, 0, 786501, 4, 0, 786502, 4, 0, 786503, 4, 0, 786504, 4, 0, 786505, 4, 0, 786506, 4, 0, 786507, 6, 0, 786512, 6, 0, 786513, 3, 0, 786514, 3, 0, 786515, 3, 0, 786516, 6, 0, 786522, 6, 0, 786523, 4, 0, 786524, 4, 0, 786525, 4, 0, 786526, 4, 0, 786527, 4, 0, 786528, 4, 0, 786529, 4, 0, 786530, 0, 0, 786531, 1610612736, 0, 786532, 4, 0, 786533, 4, 0, 786534, 6, 0, 851977, 6, 0, 851978, 2, 0, 851979, 2, 0, 851980, 2, 0, 851981, 2, 0, 851982, 2, 0, 851983, 2, 0, 851984, 2, 0, 851985, 2, 0, 851986, 2, 0, 851987, 2, 0, 851988, 2, 0, 851989, 2, 0, 851990, 2, 0, 851991, 2, 0, 851992, 2, 0, 851993, 2, 0, 851994, 2, 0, 851995, 6, 0, 851996, 3, 0, 851997, 3, 0, 851998, 3, 0, 851999, 3, 0, 852000, 3, 0, 852001, 3, 0, 852002, 3, 0, 852003, 3, 0, 852004, 3, 0, 852005, 3, 0, 852006, 3, 0, 852007, 3, 0, 852008, -1073741824, 0, 852009, -1073741824, 0, 852010, -1073741824, 0, 852011, -1073741824, 0, 852012, -1073741824, 0, 852013, -1073741824, 0, 852014, -1073741824, 0, 852015, -1073741824, 0, 852016, -1073741824, 0, 852017, -1073741824, 0, 852018, -1073741824, 0, 852019, -1073741824, 0, 852020, -1073741824, 0, 852021, -1073741824, 0, 852022, -1073741824, 0, 852023, 6, 0, 852032, 6, 0, 852033, 4, 0, 852034, 4, 0, 852035, 4, 0, 852036, 4, 0, 852037, 4, 0, 852038, 4, 0, 852039, 4, 0, 852040, 4, 0, 852041, 4, 0, 852042, 4, 0, 852043, 6, 0, 852048, 6, 0, 852049, 3, 0, 852050, 3, 0, 852051, 3, 0, 852052, 6, 0, 852058, 6, 0, 852059, 4, 0, 852060, 4, 0, 852061, 4, 0, 852062, 4, 0, 852063, 4, 0, 852064, 4, 0, 852065, 4, 0, 852066, 0, 0, 852067, 1610612736, 0, 852068, 4, 0, 852069, 4, 0, 852070, 6, 0, 917513, 6, 0, 917514, 2, 0, 917515, 2, 0, 917516, 2, 0, 917517, 2, 0, 917518, 2, 0, 917519, 2, 0, 917520, 2, 0, 917521, 2, 0, 917522, 2, 0, 917523, 2, 0, 917524, 2, 0, 917525, 2, 0, 917526, 2, 0, 917527, 2, 0, 917528, 2, 0, 917529, 2, 0, 917530, 2, 0, 917531, 6, 0, 917532, 3, 0, 917533, 3, 0, 917534, 3, 0, 917535, 3, 0, 917536, 3, 0, 917537, 3, 0, 917538, 3, 0, 917539, 3, 0, 917540, 3, 0, 917541, 3, 0, 917542, 3, 0, 917543, 3, 0, 917544, 4, 0, 917545, 4, 0, 917546, 4, 0, 917547, 4, 0, 917548, 4, 0, 917549, 4, 0, 917550, 4, 0, 917551, 4, 0, 917552, 4, 0, 917553, 4, 0, 917554, 4, 0, 917555, 4, 0, 917556, 4, 0, 917557, 4, 0, 917558, 4, 0, 917559, 6, 0, 917568, 6, 0, 917569, 4, 0, 917570, 4, 0, 917571, 4, 0, 917572, 4, 0, 917573, 4, 0, 917574, 4, 0, 917575, 4, 0, 917576, 4, 0, 917577, 4, 0, 917578, 4, 0, 917579, 6, 0, 917584, 6, 0, 917585, 3, 0, 917586, 3, 0, 917587, 3, 0, 917588, 6, 0, 917594, 6, 0, 917595, 4, 0, 917596, 4, 0, 917597, 4, 0, 917598, 4, 0, 917599, 4, 0, 917600, 4, 0, 917601, 4, 0, 917602, 0, 0, 917603, 1610612736, 0, 917604, 4, 0, 917605, 4, 0, 917606, 6, 0, 983049, 6, 0, 983050, 2, 0, 983051, 2, 0, 983052, 2, 0, 983053, 2, 0, 983054, 2, 0, 983055, 2, 0, 983056, 2, 0, 983057, 2, 0, 983058, 2, 0, 983059, 2, 0, 983060, 2, 0, 983061, 2, 0, 983062, 2, 0, 983063, 2, 0, 983064, 2, 0, 983065, 2, 0, 983066, 2, 0, 983067, 6, 0, 983068, 3, 0, 983069, 3, 0, 983070, 3, 0, 983071, 3, 0, 983072, 3, 0, 983073, 3, 0, 983074, 3, 0, 983075, 3, 0, 983076, 3, 0, 983077, 3, 0, 983078, 3, 0, 983079, 3, 0, 983080, 6, 0, 983081, 4, 0, 983082, 4, 0, 983083, 4, 0, 983084, 4, 0, 983085, 4, 0, 983086, 4, 0, 983087, 4, 0, 983088, 4, 0, 983089, 4, 0, 983090, 4, 0, 983091, 4, 0, 983092, 4, 0, 983093, 4, 0, 983094, 4, 0, 983095, 6, 0, 983104, 6, 0, 983105, 4, 0, 983106, 4, 0, 983107, 4, 0, 983108, 4, 0, 983109, 4, 0, 983110, 4, 0, 983111, 4, 0, 983112, 4, 0, 983113, 4, 0, 983114, 4, 0, 983115, 6, 0, 983120, 6, 0, 983121, 3, 0, 983122, 3, 0, 983123, 3, 0, 983124, 6, 0, 983125, 6, 0, 983126, 6, 0, 983127, 6, 0, 983128, 6, 0, 983129, 6, 0, 983130, 6, 0, 983131, 4, 0, 983132, 4, 0, 983133, 4, 0, 983134, 4, 0, 983135, 4, 0, 983136, 4, 0, 983137, 4, 0, 983138, 0, 0, 983139, 1610612736, 0, 983140, 4, 0, 983141, 4, 0, 983142, 6, 0, 1048585, 6, 0, 1048586, 2, 0, 1048587, 2, 0, 1048588, 2, 0, 1048589, 2, 0, 1048590, 2, 0, 1048591, 2, 0, 1048592, 2, 0, 1048593, 2, 0, 1048594, 2, 0, 1048595, 2, 0, 1048596, 2, 0, 1048597, 2, 0, 1048598, 2, 0, 1048599, 2, 0, 1048600, 2, 0, 1048601, 2, 0, 1048602, 2, 0, 1048603, 6, 0, 1048604, 3, 0, 1048605, 3, 0, 1048606, 3, 0, 1048607, 3, 0, 1048608, 3, 0, 1048609, 3, 0, 1048610, 3, 0, 1048611, 3, 0, 1048612, 3, 0, 1048613, 3, 0, 1048614, 3, 0, 1048615, 3, 0, 1048616, 6, 0, 1048617, 4, 0, 1048618, 4, 0, 1048619, 4, 0, 1048620, 4, 0, 1048621, 4, 0, 1048622, 4, 0, 1048623, 4, 0, 1048624, 4, 0, 1048625, 4, 0, 1048626, 4, 0, 1048627, 4, 0, 1048628, 4, 0, 1048629, 4, 0, 1048630, 4, 0, 1048631, 6, 0, 1048640, 6, 0, 1048641, 4, 0, 1048642, 4, 0, 1048643, 4, 0, 1048644, 4, 0, 1048645, 4, 0, 1048646, 4, 0, 1048647, 4, 0, 1048648, 4, 0, 1048649, 4, 0, 1048650, 4, 0, 1048651, 6, 0, 1048656, 6, 0, 1048657, 3, 0, 1048658, 3, 0, 1048659, 3, 0, 1048660, 3, 0, 1048661, 3, 0, 1048662, 3, 0, 1048663, 3, 0, 1048664, 3, 0, 1048665, 3, 0, 1048666, 4, 0, 1048667, 4, 0, 1048668, 4, 0, 1048669, 4, 0, 1048670, 4, 0, 1048671, 4, 0, 1048672, 4, 0, 1048673, 4, 0, 1048674, 4, 0, 1048675, 4, 0, 1048676, 4, 0, 1048677, 4, 0, 1048678, 6, 0, 1114121, 6, 0, 1114122, 2, 0, 1114123, 2, 0, 1114124, 2, 0, 1114125, 2, 0, 1114126, 2, 0, 1114127, 2, 0, 1114128, 2, 0, 1114129, 2, 0, 1114130, 2, 0, 1114131, 2, 0, 1114132, 2, 0, 1114133, 2, 0, 1114134, 2, 0, 1114135, 2, 0, 1114136, 2, 0, 1114137, 2, 0, 1114138, 2, 0, 1114139, 6, 0, 1114140, 3, 0, 1114141, 3, 0, 1114142, 3, 0, 1114143, 3, 0, 1114144, 3, 0, 1114145, 3, 0, 1114146, 3, 0, 1114147, 3, 0, 1114148, 3, 0, 1114149, 3, 0, 1114150, 3, 0, 1114151, 3, 0, 1114152, 6, 0, 1114153, 4, 0, 1114154, 4, 0, 1114155, 4, 0, 1114156, 4, 0, 1114157, 4, 0, 1114158, 4, 0, 1114159, 4, 0, 1114160, 4, 0, 1114161, 4, 0, 1114162, 4, 0, 1114163, 4, 0, 1114164, 4, 0, 1114165, 4, 0, 1114166, 4, 0, 1114167, 6, 0, 1114176, 6, 0, 1114177, 4, 0, 1114178, 4, 0, 1114179, 4, 0, 1114180, 4, 0, 1114181, 4, 0, 1114182, 4, 0, 1114183, 4, 0, 1114184, 4, 0, 1114185, 4, 0, 1114186, 4, 0, 1114187, 6, 0, 1114192, 6, 0, 1114193, 3, 0, 1114194, 3, 0, 1114195, 3, 0, 1114196, 3, 0, 1114197, 3, 0, 1114198, 3, 0, 1114199, 3, 0, 1114200, 3, 0, 1114201, 3, 0, 1114202, 4, 0, 1114203, 4, 0, 1114204, 4, 0, 1114205, 4, 0, 1114206, 4, 0, 1114207, 4, 0, 1114208, 4, 0, 1114209, 4, 0, 1114210, 4, 0, 1114211, 4, 0, 1114212, 4, 0, 1114213, 4, 0, 1114214, 6, 0, 1179657, 6, 0, 1179658, 2, 0, 1179659, 2, 0, 1179660, 2, 0, 1179661, 2, 0, 1179662, 2, 0, 1179663, 2, 0, 1179664, 2, 0, 1179665, 2, 0, 1179666, 2, 0, 1179667, 2, 0, 1179668, 2, 0, 1179669, 2, 0, 1179670, 2, 0, 1179671, 2, 0, 1179672, 2, 0, 1179673, 2, 0, 1179674, 2, 0, 1179675, 3, 0, 1179676, 3, 0, 1179677, 3, 0, 1179678, 3, 0, 1179679, 3, 0, 1179680, 3, 0, 1179681, 3, 0, 1179682, 3, 0, 1179683, 3, 0, 1179684, 3, 0, 1179685, 3, 0, 1179686, 3, 0, 1179687, 3, 0, 1179688, 6, 0, 1179689, 4, 0, 1179690, 4, 0, 1179691, 4, 0, 1179692, 4, 0, 1179693, 4, 0, 1179694, 4, 0, 1179695, 4, 0, 1179696, 4, 0, 1179697, 4, 0, 1179698, 4, 0, 1179699, 4, 0, 1179700, 4, 0, 1179701, 4, 0, 1179702, 4, 0, 1179703, 6, 0, 1179712, 6, 0, 1179713, 4, 0, 1179714, 4, 0, 1179715, 4, 0, 1179716, 4, 0, 1179717, 4, 0, 1179718, 4, 0, 1179719, 4, 0, 1179720, 4, 0, 1179721, 4, 0, 1179722, 4, 0, 1179723, 6, 0, 1179728, 6, 0, 1179729, 3, 0, 1179730, 3, 0, 1179731, 3, 0, 1179732, 3, 0, 1179733, 3, 0, 1179734, 3, 0, 1179735, 3, 0, 1179736, 3, 0, 1179737, 3, 0, 1179738, 4, 0, 1179739, 4, 0, 1179740, 4, 0, 1179741, 4, 0, 1179742, 4, 0, 1179743, 4, 0, 1179744, 4, 0, 1179745, 4, 0, 1179746, 4, 0, 1179747, 4, 0, 1179748, 4, 0, 1179749, 4, 0, 1179750, 6, 0, 1245193, 6, 0, 1245194, 2, 0, 1245195, 2, 0, 1245196, 2, 0, 1245197, 2, 0, 1245198, 2, 0, 1245199, 2, 0, 1245200, 2, 0, 1245201, 2, 0, 1245202, 2, 0, 1245203, 2, 0, 1245204, 2, 0, 1245205, 2, 0, 1245206, 2, 0, 1245207, 2, 0, 1245208, 2, 0, 1245209, 2, 0, 1245210, 2, 0, 1245211, 3, 0, 1245212, 3, 0, 1245213, 3, 0, 1245214, 3, 0, 1245215, 3, 0, 1245216, 3, 0, 1245217, 3, 0, 1245218, 3, 0, 1245219, 3, 0, 1245220, 3, 0, 1245221, 3, 0, 1245222, 3, 0, 1245223, 3, 0, 1245224, 6, 0, 1245225, 4, 0, 1245226, 4, 0, 1245227, 4, 0, 1245228, 4, 0, 1245229, 4, 0, 1245230, 4, 0, 1245231, 4, 0, 1245232, 4, 0, 1245233, 4, 0, 1245234, 4, 0, 1245235, 4, 0, 1245236, 4, 0, 1245237, 4, 0, 1245238, 4, 0, 1245239, 6, 0, 1245248, 6, 0, 1245249, 4, 0, 1245250, 4, 0, 1245251, 4, 0, 1245252, 4, 0, 1245253, 4, 0, 1245254, 4, 0, 1245255, 4, 0, 1245256, 4, 0, 1245257, 4, 0, 1245258, 4, 0, 1245259, 6, 0, 1245264, 6, 0, 1245265, 6, 0, 1245266, 6, 0, 1245267, 6, 0, 1245268, 6, 0, 1245269, 6, 0, 1245270, 6, 0, 1245271, 6, 0, 1245272, 6, 0, 1245273, 6, 0, 1245274, 6, 0, 1245275, 6, 0, 1245276, 6, 0, 1245277, 6, 0, 1245278, 6, 0, 1245279, 6, 0, 1245280, 6, 0, 1245281, 6, 0, 1245282, 6, 0, 1245283, 6, 0, 1245284, 6, 0, 1245285, 6, 0, 1245286, 6, 0, 1310729, 6, 0, 1310730, 2, 0, 1310731, 2, 0, 1310732, 2, 0, 1310733, 2, 0, 1310734, 2, 0, 1310735, 2, 0, 1310736, 2, 0, 1310737, 2, 0, 1310738, 2, 0, 1310739, 2, 0, 1310740, 2, 0, 1310741, 2, 0, 1310742, 2, 0, 1310743, 2, 0, 1310744, 2, 0, 1310745, 2, 0, 1310746, 2, 0, 1310747, 3, 0, 1310748, 3, 0, 1310749, 3, 0, 1310750, 3, 0, 1310751, 3, 0, 1310752, 3, 0, 1310753, 3, 0, 1310754, 3, 0, 1310755, 3, 0, 1310756, 3, 0, 1310757, 3, 0, 1310758, 3, 0, 1310759, 3, 0, 1310760, 6, 0, 1310761, 6, 0, 1310762, 6, 0, 1310763, 6, 0, 1310764, 6, 0, 1310765, 6, 0, 1310766, 6, 0, 1310767, 6, 0, 1310768, 6, 0, 1310769, 6, 0, 1310770, 6, 0, 1310771, 6, 0, 1310772, 6, 0, 1310773, 6, 0, 1310774, 6, 0, 1310775, 6, 0, 1310784, 6, 0, 1310785, 6, 0, 1310786, 6, 0, 1310787, 6, 0, 1310788, 6, 0, 1310789, 6, 0, 1310790, 6, 0, 1310791, 3, 0, 1310792, 3, 0, 1310793, 3, 0, 1310794, 3, 0, 1310795, 6, 0, 1376265, 6, 0, 1376266, 2, 0, 1376267, 2, 0, 1376268, 2, 0, 1376269, 2, 0, 1376270, 2, 0, 1376271, 2, 0, 1376272, 2, 0, 1376273, 2, 0, 1376274, 2, 0, 1376275, 2, 0, 1376276, 2, 0, 1376277, 2, 0, 1376278, 2, 0, 1376279, 2, 0, 1376280, 2, 0, 1376281, 2, 0, 1376282, 2, 0, 1376283, 3, 0, 1376284, 3, 0, 1376285, 3, 0, 1376286, 3, 0, 1376287, 3, 0, 1376288, 3, 0, 1376289, 3, 0, 1376290, 3, 0, 1376291, 3, 0, 1376292, 3, 0, 1376293, 3, 0, 1376294, 3, 0, 1376295, 3, 0, 1376296, 6, 0, 1376326, 6, 0, 1376327, 3, 0, 1376328, 3, 0, 1376329, 3, 0, 1376330, 3, 0, 1376331, 6, 0, 1441801, 6, 0, 1441802, 3, 0, 1441803, 3, 0, 1441804, 3, 0, 1441805, 3, 0, 1441806, 6, 0, 1441807, 6, 0, 1441808, 6, 0, 1441809, 6, 0, 1441810, 6, 0, 1441811, 6, 0, 1441812, 6, 0, 1441813, 6, 0, 1441814, 6, 0, 1441815, 6, 0, 1441816, 6, 0, 1441817, 6, 0, 1441818, 6, 0, 1441819, 6, 0, 1441820, 6, 0, 1441821, 6, 0, 1441822, 6, 0, 1441823, 6, 0, 1441824, 6, 0, 1441825, 6, 0, 1441826, 6, 0, 1441827, 6, 0, 1441828, 3, 0, 1441829, 3, 0, 1441830, 3, 0, 1441831, 3, 0, 1441832, 6, 0, 1441833, 6, 0, 1441834, 6, 0, 1441835, 6, 0, 1441836, 6, 0, 1441837, 6, 0, 1441838, 6, 0, 1441839, 6, 0, 1441840, 6, 0, 1441841, 6, 0, 1441842, 6, 0, 1441843, 6, 0, 1441844, 6, 0, 1441845, 6, 0, 1441846, 6, 0, 1441847, 6, 0, 1441848, 6, 0, 1441849, 6, 0, 1441850, 6, 0, 1441851, 6, 0, 1441852, 6, 0, 1441853, 6, 0, 1441854, 6, 0, 1441855, 6, 0, 1441856, 6, 0, 1441857, 6, 0, 1441858, 6, 0, 1441859, 6, 0, 1441860, 6, 0, 1441861, 6, 0, 1441862, 6, 0, 1441863, 3, 0, 1441864, 3, 0, 1441865, 3, 0, 1441866, 3, 0, 1441867, 6, 0, 1507337, 6, 0, 1507338, 3, 0, 1507339, 3, 0, 1507340, 3, 0, 1507341, 3, 0, 1507342, 6, 0, 1507363, 6, 0, 1507364, 3, 0, 1507365, 3, 0, 1507366, 3, 0, 1507367, 3, 0, 1507368, 3, 0, 1507369, 3, 0, 1507370, 3, 0, 1507371, 3, 0, 1507372, 3, 0, 1507373, 3, 0, 1507374, 3, 0, 1507375, 3, 0, 1507376, 3, 0, 1507377, 3, 0, 1507378, 3, 0, 1507379, 3, 0, 1507380, 3, 0, 1507381, 3, 0, 1507382, 3, 0, 1507383, 3, 0, 1507384, 3, 0, 1507385, 3, 0, 1507386, 3, 0, 1507387, 3, 0, 1507388, 3, 0, 1507389, 3, 0, 1507390, 3, 0, 1507391, 3, 0, 1507392, 3, 0, 1507393, 3, 0, 1507394, 3, 0, 1507395, 3, 0, 1507396, 3, 0, 1507397, 3, 0, 1507398, 3, 0, 1507399, 3, 0, 1507400, 3, 0, 1507401, 3, 0, 1507402, 3, 0, 1507403, 6, 0, 1572873, 6, 0, 1572874, 3, 0, 1572875, 3, 0, 1572876, 3, 0, 1572877, 3, 0, 1572878, 6, 0, 1572899, 6, 0, 1572900, 3, 0, 1572901, 3, 0, 1572902, 3, 0, 1572903, 3, 0, 1572904, 3, 0, 1572905, 3, 0, 1572906, 3, 0, 1572907, 3, 0, 1572908, 3, 0, 1572909, 3, 0, 1572910, 3, 0, 1572911, 3, 0, 1572912, 3, 0, 1572913, 3, 0, 1572914, 3, 0, 1572915, 3, 0, 1572916, 3, 0, 1572917, 3, 0, 1572918, 3, 0, 1572919, 3, 0, 1572920, 3, 0, 1572921, 3, 0, 1572922, 3, 0, 1572923, 3, 0, 1572924, 3, 0, 1572925, 3, 0, 1572926, 3, 0, 1572927, 3, 0, 1572928, 3, 0, 1572929, 3, 0, 1572930, 3, 0, 1572931, 3, 0, 1572932, 3, 0, 1572933, 3, 0, 1572934, 3, 0, 1572935, 3, 0, 1572936, 3, 0, 1572937, 3, 0, 1572938, 3, 0, 1572939, 6, 0, 1638409, 6, 0, 1638410, 3, 0, 1638411, 3, 0, 1638412, 3, 0, 1638413, 3, 0, 1638414, 6, 0, 1638435, 6, 0, 1638436, 3, 0, 1638437, 3, 0, 1638438, 3, 0, 1638439, 3, 0, 1638440, 3, 0, 1638441, 3, 0, 1638442, 3, 0, 1638443, 3, 0, 1638444, 3, 0, 1638445, 3, 0, 1638446, 3, 0, 1638447, 3, 0, 1638448, 3, 0, 1638449, 3, 0, 1638450, 3, 0, 1638451, 3, 0, 1638452, 3, 0, 1638453, 3, 0, 1638454, 3, 0, 1638455, 3, 0, 1638456, 3, 0, 1638457, 3, 0, 1638458, 3, 0, 1638459, 3, 0, 1638460, 3, 0, 1638461, 3, 0, 1638462, 3, 0, 1638463, 3, 0, 1638464, 3, 0, 1638465, 3, 0, 1638466, 3, 0, 1638467, 3, 0, 1638468, 3, 0, 1638469, 3, 0, 1638470, 3, 0, 1638471, 3, 0, 1638472, 3, 0, 1638473, 3, 0, 1638474, 3, 0, 1638475, 6, 0, 1703945, 6, 0, 1703946, 3, 0, 1703947, 3, 0, 1703948, 3, 0, 1703949, 3, 0, 1703950, 6, 0, 1703971, 6, 0, 1703972, 6, 0, 1703973, 6, 0, 1703974, 6, 0, 1703975, 6, 0, 1703976, 6, 0, 1703977, 6, 0, 1703978, 6, 0, 1703979, 6, 0, 1703980, 6, 0, 1703981, 6, 0, 1703982, 6, 0, 1703983, 6, 0, 1703984, 6, 0, 1703985, 6, 0, 1703986, 6, 0, 1703987, 6, 0, 1703988, 6, 0, 1703989, 6, 0, 1703990, 6, 0, 1703991, 6, 0, 1703992, 6, 0, 1703993, 6, 0, 1703994, 6, 0, 1703995, 6, 0, 1703996, 6, 0, 1703997, 6, 0, 1703998, 6, 0, 1703999, 6, 0, 1704000, 6, 0, 1704001, 6, 0, 1704002, 6, 0, 1704003, 6, 0, 1704004, 6, 0, 1704005, 6, 0, 1704006, 6, 0, 1704007, 6, 0, 1704008, 6, 0, 1704009, 6, 0, 1704010, 6, 0, 1704011, 6, 0, 1769481, 6, 0, 1769482, 3, 0, 1769483, 3, 0, 1769484, 3, 0, 1769485, 3, 0, 1769486, 6, 0, 1835017, 6, 0, 1835018, 3, 0, 1835019, 3, 0, 1835020, 3, 0, 1835021, 3, 0, 1835022, 6, 0, 1900554, 3, 0, 1900555, 3, 0, 1900556, 3, 0, 1900557, 3, 0, 1966091, 3, 0, 1966092, 3, 0 )
tile_loudness = {
"carpet_1": 0.3,
"grass_1": 1.6,
"gravel_1": 2.2,
"rock_1": 1.0,
"wood_1": 1.3
}

[node name="Door" parent="Map" instance=ExtResource( 5 )]
position = Vector2( 5152.06, 1663.77 )
rotation = 1.5708
scale = Vector2( 4.04, 1 )

[node name="Door2" parent="Map" instance=ExtResource( 5 )]
position = Vector2( 4864.26, 2847.7 )
scale = Vector2( 4.04, 1 )

[node name="Door3" parent="Map" instance=ExtResource( 5 )]
position = Vector2( 9343.21, 2591.82 )
scale = Vector2( 4.04, 1 )

[node name="Door4" parent="Map" instance=ExtResource( 5 )]
position = Vector2( 8703.12, 95.8506 )
scale = Vector2( 4.04, 1 )

[node name="Torch" parent="Map" instance=ExtResource( 4 )]
position = Vector2( 5128.23, -1042.57 )
tile_radius = 1.0
flicker_percent = 0.05

[node name="Torch3" parent="Map" instance=ExtResource( 4 )]
position = Vector2( 6841.5, -7.73782 )
tile_radius = 1.0
flicker_percent = 0.05

[node name="Torch8" parent="Map" instance=ExtResource( 4 )]
position = Vector2( 5112.81, 1394.32 )
tile_radius = 1.0
flicker_percent = 0.05

[node name="Torch9" parent="Map" instance=ExtResource( 4 )]
position = Vector2( 3519, 2311.75 )
tile_radius = 1.0
flicker_percent = 0.05

[node name="Torch10" parent="Map" instance=ExtResource( 4 )]
position = Vector2( 3519, 2807.88 )
tile_radius = 1.0
flicker_percent = 0.05

[node name="Torch4" parent="Map" instance=ExtResource( 4 )]
position = Vector2( 7841.24, -6.28503 )
tile_radius = 1.0
flicker_percent = 0.05

[node name="Torch5" parent="Map" instance=ExtResource( 4 )]
position = Vector2( 9595.13, 1073.8 )
tile_radius = 1.0
flicker_percent = 0.05

[node name="Torch6" parent="Map" instance=ExtResource( 4 )]
position = Vector2( 8327.8, 1500.27 )
tile_radius = 1.0
flicker_percent = 0.05

[node name="Torch7" parent="Map" instance=ExtResource( 4 )]
position = Vector2( 9591.71, 2192.21 )
tile_radius = 1.0
flicker_percent = 0.05

[node name="Torch2" parent="Map" instance=ExtResource( 4 )]
position = Vector2( 5495.89, -668.352 )
tile_radius = 1.0
flicker_percent = 0.05

[node name="Items" type="Node2D" parent="."]
position = Vector2( 6142.34, 1667.58 )

[node name="Chests" type="Node2D" parent="Items"]

[node name="Chest" parent="Items/Chests" instance=ExtResource( 11 )]
position = Vector2( 3547.32, -3793.43 )

[node name="Chest12" parent="Items/Chests" instance=ExtResource( 11 )]
position = Vector2( 2236, -2527.7 )
spawn_item = ExtResource( 18 )

[node name="Chest2" parent="Items/Chests" instance=ExtResource( 11 )]
position = Vector2( -0.902344, 701.15 )

[node name="Chest4" parent="Items/Chests" instance=ExtResource( 11 )]
position = Vector2( -1178.9, -284.945 )
spawn_item = ExtResource( 19 )

[node name="Chest13" parent="Items/Chests" instance=ExtResource( 11 )]
position = Vector2( 1014.56, 1456.86 )
spawn_item = ExtResource( 20 )

[node name="Chest5" parent="Items/Chests" instance=ExtResource( 11 )]
position = Vector2( -2391.8, -4.66992 )

[node name="Chest6" parent="Items/Chests" instance=ExtResource( 11 )]
position = Vector2( -2387.13, -677.601 )
spawn_item = ExtResource( 17 )

[node name="Chest7" parent="Items/Chests" instance=ExtResource( 11 )]
position = Vector2( -2009.16, -282.723 )

[node name="Chest8" parent="Items/Chests" instance=ExtResource( 11 )]
position = Vector2( -2946.76, -2025.67 )
spawn_item = ExtResource( 16 )

[node name="Chest9" parent="Items/Chests" instance=ExtResource( 11 )]
position = Vector2( 2336.86, 745.94 )
spawn_item = ExtResource( 20 )

[node name="Chest10" parent="Items/Chests" instance=ExtResource( 11 )]
position = Vector2( 5298.43, -658.03 )
spawn_item = ExtResource( 18 )

[node name="Chest11" parent="Items/Chests" instance=ExtResource( 11 )]
position = Vector2( 5296.62, -1914.12 )

[node name="Chest3" parent="Items/Chests" instance=ExtResource( 11 )]

[node name="Money" type="Node2D" parent="Items"]

[node name="MoneyStack" parent="Items/Money" instance=ExtResource( 10 )]
position = Vector2( -2919.06, -735.523 )
value = 50.0

[node name="MoneyStack2" parent="Items/Money" instance=ExtResource( 10 )]
position = Vector2( -4712.77, 475.811 )
value = 50.0

[node name="MoneyStack3" parent="Items/Money" instance=ExtResource( 10 )]
position = Vector2( -4726.75, -306.897 )
value = 50.0

[node name="MoneyStack4" parent="Items/Money" instance=ExtResource( 10 )]
position = Vector2( -4023.24, -735.523 )
value = 50.0

[node name="MoneyStack5" parent="Items/Money" instance=ExtResource( 10 )]
position = Vector2( -3440.87, 1039.55 )
value = 50.0

[node name="MoneyStack6" parent="Items/Money" instance=ExtResource( 10 )]
position = Vector2( -2779.29, 1039.55 )
value = 50.0

[node name="MoneyStack7" parent="Items/Money" instance=ExtResource( 10 )]
position = Vector2( -3207.92, 79.7979 )
value = 30.0

[node name="MoneyStack8" parent="Items/Money" instance=ExtResource( 10 )]
position = Vector2( -3664.5, -330.192 )
value = 30.0

[node name="MoneyStack9" parent="Items/Money" instance=ExtResource( 10 )]
position = Vector2( -4111.76, 98.4341 )
value = 30.0

[node name="MoneyStack10" parent="Items/Money" instance=ExtResource( 10 )]
position = Vector2( -3669.16, 443.198 )
value = 30.0

[node name="MoneyStack11" parent="Items/Money" instance=ExtResource( 10 )]
position = Vector2( -3663.14, -1302.91 )
value = 30.0

[node name="MoneyStack12" parent="Items/Money" instance=ExtResource( 10 )]
position = Vector2( -2244.52, -1302.91 )
value = 30.0

[node name="MoneyStack41" parent="Items/Money" instance=ExtResource( 10 )]
position = Vector2( -2491.31, -2025.67 )
value = 60.0

[node name="MoneyStack42" parent="Items/Money" instance=ExtResource( 10 )]
position = Vector2( -3433.96, -2025.67 )
value = 60.0

[node name="MoneyStack13" parent="Items/Money" instance=ExtResource( 10 )]
position = Vector2( -2919.06, -1302.91 )
value = 30.0

[node name="MoneyStack14" parent="Items/Money" instance=ExtResource( 10 )]
position = Vector2( -417.478, 802.995 )
value = 45.0

[node name="MoneyStack15" parent="Items/Money" instance=ExtResource( 10 )]
position = Vector2( 791.26, 405.384 )
value = 45.0

[node name="MoneyStack16" parent="Items/Money" instance=ExtResource( 10 )]
position = Vector2( 363.851, -820.923 )
value = 45.0

[node name="MoneyStack17" parent="Items/Money" instance=ExtResource( 10 )]
position = Vector2( -830.501, -377.536 )
value = 45.0

[node name="MoneyStack18" parent="Items/Money" instance=ExtResource( 10 )]
position = Vector2( 2507.12, -165.056 )
value = 60.0

[node name="MoneyStack19" parent="Items/Money" instance=ExtResource( 10 )]
position = Vector2( 3134.59, -599.66 )
value = 45.0

[node name="MoneyStack20" parent="Items/Money" instance=ExtResource( 10 )]
position = Vector2( 3165.29, 386.149 )
value = 45.0

[node name="MoneyStack21" parent="Items/Money" instance=ExtResource( 10 )]
position = Vector2( 3182.29, 1466.3 )
value = 35.0

[node name="MoneyStack22" parent="Items/Money" instance=ExtResource( 10 )]
position = Vector2( 1178.21, 1466.3 )
value = 35.0

[node name="MoneyStack23" parent="Items/Money" instance=ExtResource( 10 )]
position = Vector2( -1139.81, 1466.3 )
value = 35.0

[node name="MoneyStack24" parent="Items/Money" instance=ExtResource( 10 )]
position = Vector2( -895.004, -2407.38 )
value = 60.0

[node name="MoneyStack25" parent="Items/Money" instance=ExtResource( 10 )]
position = Vector2( -896.528, -2796.18 )
value = 60.0

[node name="MoneyStack26" parent="Items/Money" instance=ExtResource( 10 )]
position = Vector2( 214.05, -2928.47 )
value = 30.0

[node name="MoneyStack27" parent="Items/Money" instance=ExtResource( 10 )]
position = Vector2( 1184.35, -2960.23 )
value = 50.0

[node name="MoneyStack28" parent="Items/Money" instance=ExtResource( 10 )]
position = Vector2( 1872.28, -3661.51 )
value = 40.0

[node name="MoneyStack29" parent="Items/Money" instance=ExtResource( 10 )]
position = Vector2( 1707.49, -1829.84 )
value = 40.0

[node name="MoneyStack31" parent="Items/Money" instance=ExtResource( 10 )]
position = Vector2( 2788.69, -2567.02 )
value = 30.0

[node name="MoneyStack30" parent="Items/Money" instance=ExtResource( 10 )]
position = Vector2( 693.419, -1829.84 )
value = 50.0

[node name="MoneyStack32" parent="Items/Money" instance=ExtResource( 10 )]
position = Vector2( 5790.64, -1908.79 )
value = 50.0

[node name="MoneyStack33" parent="Items/Money" instance=ExtResource( 10 )]
position = Vector2( 5803.98, -690.03 )
value = 50.0

[node name="MoneyStack39" parent="Items/Money" instance=ExtResource( 10 )]
position = Vector2( 5803.98, 360.45 )
value = 35.0

[node name="MoneyStack40" parent="Items/Money" instance=ExtResource( 10 )]
position = Vector2( 5792.95, -2927.84 )
value = 35.0

[node name="MoneyStack34" parent="Items/Money" instance=ExtResource( 10 )]
position = Vector2( 4406.16, 23.9641 )
value = 20.0

[node name="MoneyStack35" parent="Items/Money" instance=ExtResource( 10 )]
position = Vector2( 4406.16, -2460.07 )
value = 20.0

[node name="MoneyStack36" parent="Items/Money" instance=ExtResource( 10 )]
position = Vector2( 4406.16, -1283.49 )
value = 20.0

[node name="MoneyStack37" parent="Items/Money" instance=ExtResource( 10 )]
position = Vector2( -73.1895, -1283.49 )
value = 20.0

[node name="MoneyStack38" parent="Items/Money" instance=ExtResource( 10 )]
position = Vector2( 2266.77, -1283.49 )
value = 20.0

[node name="Exits" type="Node2D" parent="."]
__meta__ = {
"_edit_lock_": true
}

[node name="Exit" parent="Exits" instance=ExtResource( 15 )]
position = Vector2( 64, 392 )
rotation = -1.57079
light_energy = 2.0
light_scale = 1.25

[node name="Exit2" parent="Exits" instance=ExtResource( 15 )]
position = Vector2( 4160, -2696 )
light_energy = 2.0
light_scale = 1.6

[node name="Exit3" parent="Exits" instance=ExtResource( 15 )]
position = Vector2( 14016, 384 )
rotation = -4.71238
light_energy = 2.0
light_scale = 1.25

[node name="Exit4" parent="Exits" instance=ExtResource( 15 )]
position = Vector2( 1536, 3648 )
rotation = 3.14159
light_energy = 2.0
light_scale = 1.25
