[gd_scene load_steps=2 format=2]

[sub_resource type="GDScript" id=1]
script/source = "tool
extends HBoxContainer

signal clue_priority_changed(category, priority)
signal clue_priority_removed(category)

var category_string

func set_state(category_string: String, priority: int):
	self.category_string = category_string
	$Label.text = category_string.capitalize()
	$Priority.value = priority


func _on_ButtonDelete_pressed() -> void:
	emit_signal(\"clue_priority_removed\", category_string)


func _on_Priority_value_changed(value: float) -> void:
	emit_signal(\"clue_priority_changed\", category_string, value)
"

[node name="CluePriority" type="HBoxContainer"]
margin_right = 240.0
margin_bottom = 24.0
size_flags_horizontal = 3
script = SubResource( 1 )
__meta__ = {
"_edit_use_anchors_": false
}

[node name="Label" type="Label" parent="."]
margin_right = 122.0
margin_bottom = 24.0
size_flags_horizontal = 3
size_flags_vertical = 5
text = "Example clue type"
valign = 1

[node name="Priority" type="SpinBox" parent="."]
margin_left = 126.0
margin_right = 216.0
margin_bottom = 24.0
rect_min_size = Vector2( 90, 0 )
value = 1.0
rounded = true
align = 2
__meta__ = {
"_edit_use_anchors_": false
}

[node name="ButtonDelete" type="Button" parent="."]
margin_left = 220.0
margin_right = 240.0
margin_bottom = 24.0
text = "×"
[connection signal="value_changed" from="Priority" to="." method="_on_Priority_value_changed"]
[connection signal="pressed" from="ButtonDelete" to="." method="_on_ButtonDelete_pressed"]
